<svg xmlns="http://www.w3.org/2000/svg" xmlns:oryx="http://oryx-editor.org" id="_62D96B17-8A6A-45C7-943A-35834B4585AD" width="926" height="660" xmlns:xlink="http://www.w3.org/1999/xlink" xmlns:svg="http://www.w3.org/2000/svg"><defs><marker id="_186B0D69-9AA1-44CB-9BD7-F345192EC8D9start" refX="1" refY="5" markerUnits="userSpaceOnUse" markerWidth="17" markerHeight="11" orient="auto" fill="#000000" stroke="#000000"> 	  		<path id="_186B0D69-9AA1-44CB-9BD7-F345192EC8D9conditional" d="M 0 5 L 8 0 L 16 5 L 8 10 L 0 5" fill="white" stroke="#000000" stroke-width="1" display="none"/> 			<path id="_186B0D69-9AA1-44CB-9BD7-F345192EC8D9default" d="M 5 0 L 11 10" fill="white" stroke="#000000" stroke-width="1" display="none"/> 	  	</marker><marker id="_186B0D69-9AA1-44CB-9BD7-F345192EC8D9end" refX="15" refY="6" markerUnits="userSpaceOnUse" markerWidth="15" markerHeight="12" orient="auto" fill="#000000" stroke="#000000"> 	  		<path id="_186B0D69-9AA1-44CB-9BD7-F345192EC8D9frame2" d="M 0 1 L 15 6 L 0 11z" fill="#000000" stroke="#000000" stroke-linejoin="round" stroke-width="2"/> 	  	</marker><marker id="_670860B4-0D39-4CAF-AFBF-DB3C13FE7AF6start" refX="1" refY="5" markerUnits="userSpaceOnUse" markerWidth="17" markerHeight="11" orient="auto" fill="#000000" stroke="#000000"> 	  		<path id="_670860B4-0D39-4CAF-AFBF-DB3C13FE7AF6conditional" d="M 0 5 L 8 0 L 16 5 L 8 10 L 0 5" fill="white" stroke="#000000" stroke-width="1" display="none"/> 			<path id="_670860B4-0D39-4CAF-AFBF-DB3C13FE7AF6default" d="M 5 0 L 11 10" fill="white" stroke="#000000" stroke-width="1" display="none"/> 	  	</marker><marker id="_670860B4-0D39-4CAF-AFBF-DB3C13FE7AF6end" refX="15" refY="6" markerUnits="userSpaceOnUse" markerWidth="15" markerHeight="12" orient="auto" fill="#000000" stroke="#000000"> 	  		<path id="_670860B4-0D39-4CAF-AFBF-DB3C13FE7AF6frame2" d="M 0 1 L 15 6 L 0 11z" fill="#000000" stroke="#000000" stroke-linejoin="round" stroke-width="2"/> 	  	</marker><marker id="_EFD95414-F332-4F5B-A1DB-14BFF28384F5start" refX="1" refY="5" markerUnits="userSpaceOnUse" markerWidth="17" markerHeight="11" orient="auto" fill="#000000" stroke="#000000"> 	  		<path id="_EFD95414-F332-4F5B-A1DB-14BFF28384F5conditional" d="M 0 5 L 8 0 L 16 5 L 8 10 L 0 5" fill="white" stroke="#000000" stroke-width="1" display="none"/> 			<path id="_EFD95414-F332-4F5B-A1DB-14BFF28384F5default" d="M 5 0 L 11 10" fill="white" stroke="#000000" stroke-width="1" display="none"/> 	  	</marker><marker id="_EFD95414-F332-4F5B-A1DB-14BFF28384F5end" refX="15" refY="6" markerUnits="userSpaceOnUse" markerWidth="15" markerHeight="12" orient="auto" fill="#000000" stroke="#000000"> 	  		<path id="_EFD95414-F332-4F5B-A1DB-14BFF28384F5frame2" d="M 0 1 L 15 6 L 0 11z" fill="#000000" stroke="#000000" stroke-linejoin="round" stroke-width="2"/> 	  	</marker><marker id="_9867F925-0A6B-4032-851A-11C21FA93817start" refX="1" refY="5" markerUnits="userSpaceOnUse" markerWidth="17" markerHeight="11" orient="auto" fill="#000000" stroke="#000000"> 	  		<path id="_9867F925-0A6B-4032-851A-11C21FA93817conditional" d="M 0 5 L 8 0 L 16 5 L 8 10 L 0 5" fill="white" stroke="#000000" stroke-width="1" display="none"/> 			<path id="_9867F925-0A6B-4032-851A-11C21FA93817default" d="M 5 0 L 11 10" fill="white" stroke="#000000" stroke-width="1" display="none"/> 	  	</marker><marker id="_9867F925-0A6B-4032-851A-11C21FA93817end" refX="15" refY="6" markerUnits="userSpaceOnUse" markerWidth="15" markerHeight="12" orient="auto" fill="#000000" stroke="#000000"> 	  		<path id="_9867F925-0A6B-4032-851A-11C21FA93817frame2" d="M 0 1 L 15 6 L 0 11z" fill="#000000" stroke="#000000" stroke-linejoin="round" stroke-width="2"/> 	  	</marker><marker id="_443AD9A9-34D4-4421-9AD1-B56CF89C9EC1start" refX="1" refY="5" markerUnits="userSpaceOnUse" markerWidth="17" markerHeight="11" orient="auto" fill="#000000" stroke="#000000"> 	  		<path id="_443AD9A9-34D4-4421-9AD1-B56CF89C9EC1conditional" d="M 0 5 L 8 0 L 16 5 L 8 10 L 0 5" fill="white" stroke="#000000" stroke-width="1" display="none"/> 			<path id="_443AD9A9-34D4-4421-9AD1-B56CF89C9EC1default" d="M 5 0 L 11 10" fill="white" stroke="#000000" stroke-width="1" display="none"/> 	  	</marker><marker id="_443AD9A9-34D4-4421-9AD1-B56CF89C9EC1end" refX="15" refY="6" markerUnits="userSpaceOnUse" markerWidth="15" markerHeight="12" orient="auto" fill="#000000" stroke="#000000"> 	  		<path id="_443AD9A9-34D4-4421-9AD1-B56CF89C9EC1frame2" d="M 0 1 L 15 6 L 0 11z" fill="#000000" stroke="#000000" stroke-linejoin="round" stroke-width="2"/> 	  	</marker></defs><g stroke="none" font-family="Verdana, sans-serif" font-size-adjust="none" font-style="normal" font-variant="normal" font-weight="normal" line-heigth="normal" font-size="12"><g class="stencils" transform="translate(15, 15)"><g class="me"/><g class="children"><g id="_5D98ED44-57CB-4537-9D40-D701956BF246" bpmn2nodeid="_milestoneTask"><g class="stencils" transform="translate(105, 540)"><g class="me"><g pointer-events="fill" oryx:minimumSize="50 40" id="_5D98ED44-57CB-4537-9D40-D701956BF246">
  	<defs id="_5D98ED44-57CB-4537-9D40-D701956BF246__5D98ED44-57CB-4537-9D40-D701956BF246_17">
		<radialGradient id="_5D98ED44-57CB-4537-9D40-D701956BF246background" cx="10%" cy="10%" r="100%" fx="10%" fy="10%">
			<stop offset="0%" stop-color="#ffffff" stop-opacity="1" id="_5D98ED44-57CB-4537-9D40-D701956BF246__5D98ED44-57CB-4537-9D40-D701956BF246_18"/>
			<stop id="_5D98ED44-57CB-4537-9D40-D701956BF246fill_el" offset="100%" stop-color="#fafad2" stop-opacity="1"/>
		</radialGradient>
	</defs>

	<rect id="_5D98ED44-57CB-4537-9D40-D701956BF246text_frame" oryx:anchors="bottom top right left" x="1" y="1" width="94" height="79" rx="10" ry="10" stroke="none" stroke-width="0" fill="none"/>
	<rect id="_5D98ED44-57CB-4537-9D40-D701956BF246bg_frame" oryx:resize="vertical horizontal" x="0" y="0" width="100" height="80" rx="10" ry="10" stroke="#000000" stroke-width="1" fill="url(#_5D98ED44-57CB-4537-9D40-D701956BF246background) #ffffcc"/>
		<text font-size="12" id="_5D98ED44-57CB-4537-9D40-D701956BF246text_name" x="50" y="40" oryx:align="middle center" oryx:fittoelem="text_frame" stroke="black" stroke-width="0pt" letter-spacing="-0.01px" fill="#000000" text-anchor="middle" transform="rotate(0 50 40)" visibility="inherit" oryx:fontSize="12"><tspan x="50" y="40" dy="5">Full statement</tspan></text>
    <g id="_5D98ED44-57CB-4537-9D40-D701956BF246Milestone" transform="scale(0.7,0.7) translate(8,8)">
        <image oryx:anchors="top" x="2" y="2" width="20" height="20" xlink:href="data:image/png;base64,iVBORw0KGgoAAAANSUhEUgAAABAAAAAQCAYAAAAf8/9hAAAArklEQVR42mNQUVH5GyMnt+s+P/+zBwICTx/w8S0HsjMecHEZvWJg4GEgBIAG/NNQUXkO1HQbaMB/JPz1AS/vRiBOusvAwE+OARj4IR/f0ftcXP5PeXlFyDIAGd/j47v/iIfHjjgD+Pl/3efjOwF0QdwVBgaJUAYGZtwu4Of/B8TfgXj/fR6e+v8MDCzYvF7IwMCJYgDQSUcfsbKa7sehAW8gAvFjBnLBqAGjBgABAJ+4l3hcf8LlAAAAAElFTkSuQmCC" id="_5D98ED44-57CB-4537-9D40-D701956BF246__5D98ED44-57CB-4537-9D40-D701956BF246_19"/>
    </g>
  </g></g><g class="children" style="overflow:hidden"/><g class="edge"/></g><g class="controls"><g class="dockers"/><g class="magnets" transform="translate(105, 540)"><g pointer-events="all" display="none" transform="translate(-7, 12)"><circle cx="8" cy="8" r="4" stroke="none" fill="red" fill-opacity="0.3"/></g><g pointer-events="all" display="none" transform="translate(-7, 32)"><circle cx="8" cy="8" r="4" stroke="none" fill="red" fill-opacity="0.3"/></g><g pointer-events="all" display="none" transform="translate(-7, 52)"><circle cx="8" cy="8" r="4" stroke="none" fill="red" fill-opacity="0.3"/></g><g pointer-events="all" display="none" transform="translate(17, 71)"><circle cx="8" cy="8" r="4" stroke="none" fill="red" fill-opacity="0.3"/></g><g pointer-events="all" display="none" transform="translate(42, 71)"><circle cx="8" cy="8" r="4" stroke="none" fill="red" fill-opacity="0.3"/></g><g pointer-events="all" display="none" transform="translate(67, 71)"><circle cx="8" cy="8" r="4" stroke="none" fill="red" fill-opacity="0.3"/></g><g pointer-events="all" display="none" transform="translate(91, 12)"><circle cx="8" cy="8" r="4" stroke="none" fill="red" fill-opacity="0.3"/></g><g pointer-events="all" display="none" transform="translate(91, 32)"><circle cx="8" cy="8" r="4" stroke="none" fill="red" fill-opacity="0.3"/></g><g pointer-events="all" display="none" transform="translate(91, 52)"><circle cx="8" cy="8" r="4" stroke="none" fill="red" fill-opacity="0.3"/></g><g pointer-events="all" display="none" transform="translate(17, -7)"><circle cx="8" cy="8" r="4" stroke="none" fill="red" fill-opacity="0.3"/></g><g pointer-events="all" display="none" transform="translate(42, -7)"><circle cx="8" cy="8" r="4" stroke="none" fill="red" fill-opacity="0.3"/></g><g pointer-events="all" display="none" transform="translate(67, -7)"><circle cx="8" cy="8" r="4" stroke="none" fill="red" fill-opacity="0.3"/></g><g pointer-events="all" display="none" transform="translate(42, 32)"><circle cx="8" cy="8" r="4" stroke="none" fill="red" fill-opacity="0.3"/></g></g></g></g><g id="_D46DA694-7379-4813-8818-6F7581F476CC" bpmn2nodeid="_6031FF90-DACA-4D7C-9DA2-E9735786CB20"><g class="stencils" transform="translate(97, 45)"><g class="me"><g pointer-events="fill" oryx:minimumSize="120 100" oryx:maximumSize="" id="_D46DA694-7379-4813-8818-6F7581F476CC">   	<defs id="_D46DA694-7379-4813-8818-6F7581F476CC__D46DA694-7379-4813-8818-6F7581F476CC_17"> 		<radialGradient id="_D46DA694-7379-4813-8818-6F7581F476CCbackground" cx="10%" cy="10%" r="100%" fx="10%" fy="10%"> 			<stop offset="0%" stop-color="#ffffff" stop-opacity="1" id="_D46DA694-7379-4813-8818-6F7581F476CC__D46DA694-7379-4813-8818-6F7581F476CC_18"/> 			<stop id="_D46DA694-7379-4813-8818-6F7581F476CCfill_el" offset="100%" stop-color="#FFFFFF" stop-opacity="1"/> 		</radialGradient> 		<radialGradient id="_D46DA694-7379-4813-8818-6F7581F476CCborderbackground" cx="10%" cy="10%" r="100%" fx="10%" fy="10%"> 			<stop offset="0%" stop-color="#ffffff" stop-opacity="1" id="_D46DA694-7379-4813-8818-6F7581F476CC__D46DA694-7379-4813-8818-6F7581F476CC_19"/> 			<stop id="_D46DA694-7379-4813-8818-6F7581F476CCfill_border" offset="100%" stop-color="#000000" stop-opacity="1" stroke="#000000"/> 		</radialGradient> 	</defs> 	     <rect id="_D46DA694-7379-4813-8818-6F7581F476CCtext_frame" oryx:anchors="bottom top right left" x="0" y="0" width="631" height="203" rx="10" ry="10" stroke="none" stroke-width="0" fill="none"/> 	<rect id="_D46DA694-7379-4813-8818-6F7581F476CCbg_frame" oryx:anchors="bottom top right left" x="0" y="0" width="641" height="203" rx="10" ry="10" stroke="#000000" stroke-width="1" fill="url(#_D46DA694-7379-4813-8818-6F7581F476CCbackground) white"/>     	<text font-size="12" id="_D46DA694-7379-4813-8818-6F7581F476CCtext_name" x="8" y="10" oryx:align="top left" oryx:fittoelem="text_frame" oryx:anchors="left top" stroke="black" stroke-width="0pt" letter-spacing="-0.01px" fill="#000000" text-anchor="start" transform="rotate(0 8 10)" visibility="inherit" oryx:fontSize="12"><tspan x="8" y="10" dy="12">1 - first call</tspan></text>     	 	<g id="_D46DA694-7379-4813-8818-6F7581F476CCnone"/> 	undefined 	 	 	<g id="_D46DA694-7379-4813-8818-6F7581F476CCmiparallel" display="none"> 		<path id="_D46DA694-7379-4813-8818-6F7581F476CCframe2" oryx:anchors="bottom" fill="none" stroke="#000000" d=" M319.705 188  v10  M323.705 188  v10  M327.705 188  v10 " stroke-width="2"/> 	</g> 	<g id="_D46DA694-7379-4813-8818-6F7581F476CCmisequential" display="inherit"> 		<path id="_D46DA694-7379-4813-8818-6F7581F476CCframe3" oryx:anchors="bottom" fill="none" stroke="#000000" stroke-width="2" d=" M318.705 197  h10  M318.705 193  h10  M318.705 189  h10 "/> 	</g> 	 	 	<g id="_D46DA694-7379-4813-8818-6F7581F476CCadhoc" display="inherit"> 		<text id="_D46DA694-7379-4813-8818-6F7581F476CCframe4" oryx:anchors="bottom" x="355.755" y="200" font-size="20" transform="rotate(0 355.755 200)" fill="url(#_D46DA694-7379-4813-8818-6F7581F476CCborderbackground)" stroke-width="0pt" letter-spacing="-0.01px" stroke="#000000" text-anchor="start" visibility="inherit" oryx:fontSize="20"><tspan x="355.755" y="200" dy="0">~</tspan></text> 	</g> 	undefined   </g></g><g class="children" style="overflow:hidden"><g id="_4DBCDB18-600D-40DF-A90B-C12E90072ADF" bpmn2nodeid="_4C5A4DAE-7D4F-445B-BB65-AF6BBD7BD6C2"><g class="stencils" transform="translate(81, 63)"><g class="me"><g pointer-events="fill" oryx:minimumSize="50 40" id="_4DBCDB18-600D-40DF-A90B-C12E90072ADF">   	<defs id="_4DBCDB18-600D-40DF-A90B-C12E90072ADF__4DBCDB18-600D-40DF-A90B-C12E90072ADF_17"> 		<radialGradient id="_4DBCDB18-600D-40DF-A90B-C12E90072ADFbackground" cx="10%" cy="10%" r="100%" fx="10%" fy="10%"> 			<stop offset="0%" stop-color="#ffffff" stop-opacity="1" id="_4DBCDB18-600D-40DF-A90B-C12E90072ADF__4DBCDB18-600D-40DF-A90B-C12E90072ADF_18"/> 			<stop id="_4DBCDB18-600D-40DF-A90B-C12E90072ADFfill_el" offset="100%" stop-color="#fafad2" stop-opacity="1"/> 		</radialGradient> 		<radialGradient id="_4DBCDB18-600D-40DF-A90B-C12E90072ADFborderbackground" cx="10%" cy="10%" r="100%" fx="10%" fy="10%"> 			<stop offset="0%" stop-color="#ffffff" stop-opacity="1" id="_4DBCDB18-600D-40DF-A90B-C12E90072ADF__4DBCDB18-600D-40DF-A90B-C12E90072ADF_19"/> 			<stop id="_4DBCDB18-600D-40DF-A90B-C12E90072ADFfill_border" offset="100%" stop-color="#000000" stop-opacity="1" stroke="#000000"/> 		</radialGradient> 	</defs> 	 	<rect id="_4DBCDB18-600D-40DF-A90B-C12E90072ADFtext_frame" oryx:anchors="bottom top right left" x="1" y="1" width="94" height="79" rx="10" ry="10" stroke="none" stroke-width="0" fill="none"/> 	<rect id="_4DBCDB18-600D-40DF-A90B-C12E90072ADFbg_frame" oryx:resize="vertical horizontal" x="0" y="0" width="100" height="80" rx="10" ry="10" stroke="#000000" stroke-width="1" fill="url(#_4DBCDB18-600D-40DF-A90B-C12E90072ADFbackground) #ffffcc"/> 		<text font-size="12" id="_4DBCDB18-600D-40DF-A90B-C12E90072ADFtext_name" x="50" y="40" oryx:align="middle center" oryx:fittoelem="text_frame" stroke="black" text-anchor="middle" stroke-width="0pt" letter-spacing="-0.01px" fill="#000000" transform="rotate(0 50 40)" visibility="inherit" oryx:fontSize="12"><tspan x="50" y="40" dy="-1" id="ext-gen605">collect </tspan><tspan x="50" y="40" dy="11" id="ext-gen606">customer data</tspan></text>     <g id="_4DBCDB18-600D-40DF-A90B-C12E90072ADFmanualTask" transform="scale(0.7,0.7) translate(8,8)" display="none">     	<path oryx:anchors="top left" id="_4DBCDB18-600D-40DF-A90B-C12E90072ADFframe" style="opacity:1;fill:none;fill-opacity:1;stroke-width:1" d="M0.5,3.751l4.083-3.25c0,0,11.166,0.083,12.083,0.083s-2.417,2.917-1.5,2.917     s11.667,0,12.584,0c1.166,1.708-0.168,3.167-0.834,3.667s0.875,1.917-1,4.417c-0.75,0.25,0.75,1.875-1.333,3.333     c-1.167,0.583,0.583,1.542-1.25,2.833c-1.167,0-20.833,0.083-20.833,0.083l-2-1.333V3.751z" stroke="#000000"/> 		<path id="_4DBCDB18-600D-40DF-A90B-C12E90072ADFframe2" oryx:anchors="top left" style="opacity:1;fill:none;stroke-width:2" d="M 13.5 7 L 27 7" stroke="#000000"/> 		<path id="_4DBCDB18-600D-40DF-A90B-C12E90072ADFframe3" oryx:anchors="top left" style="opacity:1;fill:none;stroke-width:2" d="M 13.5 11 L 26 11" stroke="#000000"/> 		<path id="_4DBCDB18-600D-40DF-A90B-C12E90072ADFframe4" oryx:anchors="top left" style="opacity:1;fill:none;stroke-width:1.5" d="M 14 14.5 L 25 14.5" stroke="#000000"/> 		<path id="_4DBCDB18-600D-40DF-A90B-C12E90072ADFframe5" oryx:anchors="top left" style="opacity:1;fill:none;stroke-width:1.5" d="M 8.2 3.1 L 15 3.1" stroke="#000000"/> 	</g> 	 	<g id="_4DBCDB18-600D-40DF-A90B-C12E90072ADFbusinessRuleTask" transform="scale(0.7,0.7) translate(8,8)" display="none"> 		<rect id="_4DBCDB18-600D-40DF-A90B-C12E90072ADFframe6" oryx:anchors="top left" x="0" y="0" width="22" height="4" style="opacity:1;fill:#B3B1B3;fill-opacity:1;" stroke="#000000"/> 		<rect id="_4DBCDB18-600D-40DF-A90B-C12E90072ADFframe7" oryx:anchors="top left" x="0" y="4" style="opacity:1;fill:none;" width="22" height="12" stroke="#000000"/> 		<path id="_4DBCDB18-600D-40DF-A90B-C12E90072ADFframe8" oryx:anchors="top left" style="opacity:1;fill:none;" d="M 0 10 L 22 10" stroke="#000000"/> 		<path id="_4DBCDB18-600D-40DF-A90B-C12E90072ADFframe9" oryx:anchors="top left" style="opacity:1; fill:none;" d="M 7 4 L 7 16" stroke="#000000"/> 	</g> 	 	<g id="_4DBCDB18-600D-40DF-A90B-C12E90072ADFscriptTask" transform="scale(0.7,0.7) translate(8,8)" display="none"> 		<path oryx:anchors="top left" id="_4DBCDB18-600D-40DF-A90B-C12E90072ADFframe10" style="opacity:1;fill:none;" stroke="#000000" d="M6.402,0.5h14.5c0,0-5.833,2.833-5.833,5.583s4.417,6,4.417,9.167    s-4.167,5.083-4.167,5.083H0.235c0,0,5-2.667,5-5s-4.583-6.75-4.583-9.25S6.402,0.5,6.402,0.5z"/> 		<path oryx:anchors="top left" id="_4DBCDB18-600D-40DF-A90B-C12E90072ADFframe11" style="opacity:1;fill:none;stroke-width:1.5" d="M 3.5 4.5 L 13.5 4.5" stroke="#000000"/> 		<path oryx:anchors="top left" id="_4DBCDB18-600D-40DF-A90B-C12E90072ADFframe12" style="opacity:1;fill:none;stroke-width:1.5" d="M 3.8 8.5 L 13.8 8.5" stroke="#000000"/> 		<path oryx:anchors="top left" id="_4DBCDB18-600D-40DF-A90B-C12E90072ADFframe13" style="opacity:1;fill:none;stroke-width:1.5" d="M 6.3 12.5 L 16.3 12.5" stroke="#000000"/> 		<path oryx:anchors="top left" id="_4DBCDB18-600D-40DF-A90B-C12E90072ADFframe14" style="opacity:1;fill:none;stroke-width:1.5" d="M 6.5 16.5 L 16.5 16.5" stroke="#000000"/> 	</g> 	 	<g id="_4DBCDB18-600D-40DF-A90B-C12E90072ADFuserTask" transform="scale(0.7,0.7) translate(8,8)" display="inherit"> 		<path id="_4DBCDB18-600D-40DF-A90B-C12E90072ADFframe15" oryx:anchors="top left" style="opacity:1;fill:#F4F6F7" stroke="#000000" d="M0.585,24.167h24.083v-7.833c0,0-2.333-3.917-7.083-5.167h-9.25    c-4.417,1.333-7.833,5.75-7.833,5.75L0.585,24.167z"/> 		<path id="_4DBCDB18-600D-40DF-A90B-C12E90072ADFframe16" oryx:anchors="top left" style="opacity:1;fill:none" d="M 6 20 L 6 24" stroke="#000000"/> 		<path id="_4DBCDB18-600D-40DF-A90B-C12E90072ADFframe17" oryx:anchors="top left" style="opacity:1;fill:none" d="M 20 20 L 20 24" stroke="#000000"/> 		<circle id="_4DBCDB18-600D-40DF-A90B-C12E90072ADFframe18" oryx:anchors="top left" fill="black" cx="13.002" cy="5.916" r="5.417" stroke="#000000"/> 		<path id="_4DBCDB18-600D-40DF-A90B-C12E90072ADFframe19" oryx:anchors="top left" style="opacity:1;fill:#F0EFF0;" stroke="#000000" d="M8.043,7.083c0,0,2.814-2.426,5.376-1.807s4.624-0.693,4.624-0.693    c0.25,1.688,0.042,3.75-1.458,5.584c0,0,1.083,0.75,1.083,1.5s0.125,1.875-1,3s-5.5,1.25-6.75,0S8.668,12.834,8.668,12    s0.583-1.25,1.25-1.917C8.835,9.5,7.419,7.708,8.043,7.083z"/> 	</g> 	 	<g id="_4DBCDB18-600D-40DF-A90B-C12E90072ADFserviceTask" transform="scale(0.7,0.7) translate(8,8)" display="none"> 		<polygon oryx:anchors="top left" id="_4DBCDB18-600D-40DF-A90B-C12E90072ADFframe20" style="opacity:1;fill:#ffffff" stroke="#000000" points="15.392,5.064 17.954,2.502 20.347,4.895 17.786,7.455     18.729,9.732 22.353,9.732 22.353,13.115 18.731,13.115 17.788,15.392 20.351,17.955 17.958,20.347 15.397,17.786 13.12,18.729     13.12,22.353 9.737,22.353 9.737,18.731 7.46,17.788 4.897,20.35 2.506,17.958 5.066,15.397 4.124,13.12 0.5,13.12 0.5,9.737     4.121,9.737 5.065,7.461 2.503,4.898 4.895,2.506 7.455,5.066 9.732,4.125 9.732,0.5 13.116,0.5 13.116,4.121 "/> 		<circle oryx:anchors="top left" id="_4DBCDB18-600D-40DF-A90B-C12E90072ADFframe21" style="opacity:1;fill:none" stroke="#000000" cx="11.427" cy="11.426" r="3.714"/> 		<polygon oryx:anchors="top left" id="_4DBCDB18-600D-40DF-A90B-C12E90072ADFframe22" style="opacity:1;fill:#ffffff" stroke="#000000" points="21.392,11.064 23.954,8.502 26.347,10.895 23.786,13.455     24.729,15.732 28.353,15.732 28.353,19.115 24.731,19.115 23.788,21.392 26.351,23.955 23.958,26.347 21.397,23.786 19.12,24.729     19.12,28.353 15.737,28.353 15.737,24.731 13.46,23.788 10.897,26.35 8.506,23.958 11.066,21.397 10.124,19.12 6.5,19.12     6.5,15.737 10.121,15.737 11.065,13.461 8.503,10.898 10.895,8.506 13.455,11.066 15.732,10.125 15.732,6.5 19.116,6.5     19.116,10.121 "/> 		<circle oryx:anchors="top left" id="_4DBCDB18-600D-40DF-A90B-C12E90072ADFframe23" style="opacity:1;fill:none;" stroke="#000000" cx="17.427" cy="17.426" r="3.714"/> 	</g> 	 	<g id="_4DBCDB18-600D-40DF-A90B-C12E90072ADFsendTask" display="none"> 		<path id="_4DBCDB18-600D-40DF-A90B-C12E90072ADFstframe24" oryx:anchors="left top" stroke="#FFFFFF" fill="black" stroke-width="1" d="M8,11 L8,21 L24,21 L24,11 L16,17z"/> 		<path id="_4DBCDB18-600D-40DF-A90B-C12E90072ADFstframe25" oryx:anchors="left top" stroke="#FFFFFF" fill="black" stroke-width="1" d="M7,10 L16,17 L25 10z"/> 	</g> 	 	<g id="_4DBCDB18-600D-40DF-A90B-C12E90072ADFreceiveTask" display="none"> 		<path id="_4DBCDB18-600D-40DF-A90B-C12E90072ADFframe26" oryx:anchors="left top" stroke="#000000" fill="none" stroke-width="1" d="M8,11 L8,21 L24,21 L24,11z M8,11 L16,17 L24,11"/> 	</g> 	 	<g id="_4DBCDB18-600D-40DF-A90B-C12E90072ADFnone" display="inherit"/>  	<g id="_4DBCDB18-600D-40DF-A90B-C12E90072ADFsequential" display="none">         <path oryx:anchors="bottom" fill="none" stroke="#000000" stroke-width="2" d="M46,76h10M46,72h10 M46,68h10" id="_4DBCDB18-600D-40DF-A90B-C12E90072ADF__4DBCDB18-600D-40DF-A90B-C12E90072ADF_20"/>     </g>   </g></g><g class="children" style="overflow:hidden"/><g class="edge"/></g><g class="controls"><g class="dockers"/><g class="magnets" transform="translate(81, 63)"><g pointer-events="all" display="none" transform="translate(-7, 12)"><circle cx="8" cy="8" r="4" stroke="none" fill="red" fill-opacity="0.3"/></g><g pointer-events="all" display="none" transform="translate(-7, 32)"><circle cx="8" cy="8" r="4" stroke="none" fill="red" fill-opacity="0.3"/></g><g pointer-events="all" display="none" transform="translate(-7, 52)"><circle cx="8" cy="8" r="4" stroke="none" fill="red" fill-opacity="0.3"/></g><g pointer-events="all" display="none" transform="translate(17, 71)"><circle cx="8" cy="8" r="4" stroke="none" fill="red" fill-opacity="0.3"/></g><g pointer-events="all" display="none" transform="translate(42, 71)"><circle cx="8" cy="8" r="4" stroke="none" fill="red" fill-opacity="0.3"/></g><g pointer-events="all" display="none" transform="translate(67, 71)"><circle cx="8" cy="8" r="4" stroke="none" fill="red" fill-opacity="0.3"/></g><g pointer-events="all" display="none" transform="translate(91, 12)"><circle cx="8" cy="8" r="4" stroke="none" fill="red" fill-opacity="0.3"/></g><g pointer-events="all" display="none" transform="translate(91, 32)"><circle cx="8" cy="8" r="4" stroke="none" fill="red" fill-opacity="0.3"/></g><g pointer-events="all" display="none" transform="translate(91, 52)"><circle cx="8" cy="8" r="4" stroke="none" fill="red" fill-opacity="0.3"/></g><g pointer-events="all" display="none" transform="translate(17, -7)"><circle cx="8" cy="8" r="4" stroke="none" fill="red" fill-opacity="0.3"/></g><g pointer-events="all" display="none" transform="translate(42, -7)"><circle cx="8" cy="8" r="4" stroke="none" fill="red" fill-opacity="0.3"/></g><g pointer-events="all" display="none" transform="translate(67, -7)"><circle cx="8" cy="8" r="4" stroke="none" fill="red" fill-opacity="0.3"/></g><g pointer-events="all" display="none" transform="translate(42, 32)"><circle cx="8" cy="8" r="4" stroke="none" fill="red" fill-opacity="0.3"/></g></g></g></g></g><g class="edge"/></g><g class="controls"><g class="dockers"/><g class="magnets" transform="translate(97, 45)"><g pointer-events="all" display="none" transform="translate(-7, 55.4375)"><circle cx="8" cy="8" r="4" stroke="none" fill="red" fill-opacity="0.3"/></g><g pointer-events="all" display="none" transform="translate(-7, 93.5)"><circle cx="8" cy="8" r="4" stroke="none" fill="red" fill-opacity="0.3"/></g><g pointer-events="all" display="none" transform="translate(-7, 131.5625)"><circle cx="8" cy="8" r="4" stroke="none" fill="red" fill-opacity="0.3"/></g><g pointer-events="all" display="none" transform="translate(216.35, 194)"><circle cx="8" cy="8" r="4" stroke="none" fill="red" fill-opacity="0.3"/></g><g pointer-events="all" display="none" transform="translate(312.5, 194)"><circle cx="8" cy="8" r="4" stroke="none" fill="red" fill-opacity="0.3"/></g><g pointer-events="all" display="none" transform="translate(408.65000000000003, 194)"><circle cx="8" cy="8" r="4" stroke="none" fill="red" fill-opacity="0.3"/></g><g pointer-events="all" display="none" transform="translate(632, 55.4375)"><circle cx="8" cy="8" r="4" stroke="none" fill="red" fill-opacity="0.3"/></g><g pointer-events="all" display="none" transform="translate(632, 93.5)"><circle cx="8" cy="8" r="4" stroke="none" fill="red" fill-opacity="0.3"/></g><g pointer-events="all" display="none" transform="translate(632, 131.5625)"><circle cx="8" cy="8" r="4" stroke="none" fill="red" fill-opacity="0.3"/></g><g pointer-events="all" display="none" transform="translate(216.35, -7)"><circle cx="8" cy="8" r="4" stroke="none" fill="red" fill-opacity="0.3"/></g><g pointer-events="all" display="none" transform="translate(312.5, -7)"><circle cx="8" cy="8" r="4" stroke="none" fill="red" fill-opacity="0.3"/></g><g pointer-events="all" display="none" transform="translate(408.65000000000003, -7)"><circle cx="8" cy="8" r="4" stroke="none" fill="red" fill-opacity="0.3"/></g><g pointer-events="all" display="none" transform="translate(312.5, 93.5)"><circle cx="8" cy="8" r="4" stroke="none" fill="red" fill-opacity="0.3"/></g></g></g></g><g id="_FA6CB90A-B7AF-4A8B-8A4D-55A7C831D74F" bpmn2nodeid="_87C5227C-A738-469F-8954-D7BDC1B12C43"><g class="stencils" transform="translate(97, 270)"><g class="me"><g pointer-events="fill" oryx:minimumSize="120 100" oryx:maximumSize="" id="_FA6CB90A-B7AF-4A8B-8A4D-55A7C831D74F">   	<defs id="_FA6CB90A-B7AF-4A8B-8A4D-55A7C831D74F__FA6CB90A-B7AF-4A8B-8A4D-55A7C831D74F_17"> 		<radialGradient id="_FA6CB90A-B7AF-4A8B-8A4D-55A7C831D74Fbackground" cx="10%" cy="10%" r="100%" fx="10%" fy="10%"> 			<stop offset="0%" stop-color="#ffffff" stop-opacity="1" id="_FA6CB90A-B7AF-4A8B-8A4D-55A7C831D74F__FA6CB90A-B7AF-4A8B-8A4D-55A7C831D74F_18"/> 			<stop id="_FA6CB90A-B7AF-4A8B-8A4D-55A7C831D74Ffill_el" offset="100%" stop-color="#FFFFFF" stop-opacity="1"/> 		</radialGradient> 		<radialGradient id="_FA6CB90A-B7AF-4A8B-8A4D-55A7C831D74Fborderbackground" cx="10%" cy="10%" r="100%" fx="10%" fy="10%"> 			<stop offset="0%" stop-color="#ffffff" stop-opacity="1" id="_FA6CB90A-B7AF-4A8B-8A4D-55A7C831D74F__FA6CB90A-B7AF-4A8B-8A4D-55A7C831D74F_19"/> 			<stop id="_FA6CB90A-B7AF-4A8B-8A4D-55A7C831D74Ffill_border" offset="100%" stop-color="#000000" stop-opacity="1" stroke="#000000"/> 		</radialGradient> 	</defs> 	     <rect id="_FA6CB90A-B7AF-4A8B-8A4D-55A7C831D74Ftext_frame" oryx:anchors="bottom top right left" x="0" y="0" width="631" height="189" rx="10" ry="10" stroke="none" stroke-width="0" fill="none"/> 	<rect id="_FA6CB90A-B7AF-4A8B-8A4D-55A7C831D74Fbg_frame" oryx:anchors="bottom top right left" x="0" y="0" width="641" height="189" rx="10" ry="10" stroke="#000000" stroke-width="1" fill="url(#_FA6CB90A-B7AF-4A8B-8A4D-55A7C831D74Fbackground) white"/>     	<text font-size="12" id="_FA6CB90A-B7AF-4A8B-8A4D-55A7C831D74Ftext_name" x="8" y="10" oryx:align="top left" oryx:fittoelem="text_frame" oryx:anchors="left top" stroke="black" stroke-width="0pt" letter-spacing="-0.01px" fill="#000000" text-anchor="start" transform="rotate(0 8 10)" visibility="inherit" oryx:fontSize="12"><tspan x="8" y="10" dy="12">2 - investigation</tspan></text>     	 	<g id="_FA6CB90A-B7AF-4A8B-8A4D-55A7C831D74Fnone"/> 	undefined 	 	 	<g id="_FA6CB90A-B7AF-4A8B-8A4D-55A7C831D74Fmiparallel" display="none"> 		<path id="_FA6CB90A-B7AF-4A8B-8A4D-55A7C831D74Fframe2" oryx:anchors="bottom" fill="none" stroke="#000000" d=" M319.705 174  v10  M323.705 174  v10  M327.705 174  v10 " stroke-width="2"/> 	</g> 	<g id="_FA6CB90A-B7AF-4A8B-8A4D-55A7C831D74Fmisequential" display="inherit"> 		<path id="_FA6CB90A-B7AF-4A8B-8A4D-55A7C831D74Fframe3" oryx:anchors="bottom" fill="none" stroke="#000000" stroke-width="2" d=" M318.705 183  h10  M318.705 179  h10  M318.705 175  h10 "/> 	</g> 	 	 	<g id="_FA6CB90A-B7AF-4A8B-8A4D-55A7C831D74Fadhoc" display="inherit"> 		<text id="_FA6CB90A-B7AF-4A8B-8A4D-55A7C831D74Fframe4" oryx:anchors="bottom" x="355.755" y="186" font-size="20" transform="rotate(0 355.755 186)" fill="url(#_FA6CB90A-B7AF-4A8B-8A4D-55A7C831D74Fborderbackground)" stroke-width="0pt" letter-spacing="-0.01px" stroke="#000000" text-anchor="start" visibility="inherit" oryx:fontSize="20"><tspan x="355.755" y="186" dy="0">~</tspan></text> 	</g> 	undefined   </g></g><g class="children" style="overflow:hidden"><g id="_5C356F8B-D3D5-47F6-8418-7E4653FD4425" bpmn2nodeid="_B1043C53-329E-442E-95BD-5F05E734E124"><g class="stencils" transform="translate(81, 63)"><g class="me"><g pointer-events="fill" oryx:minimumSize="50 40" id="_5C356F8B-D3D5-47F6-8418-7E4653FD4425">   	<defs id="_5C356F8B-D3D5-47F6-8418-7E4653FD4425__5C356F8B-D3D5-47F6-8418-7E4653FD4425_17"> 		<radialGradient id="_5C356F8B-D3D5-47F6-8418-7E4653FD4425background" cx="10%" cy="10%" r="100%" fx="10%" fy="10%"> 			<stop offset="0%" stop-color="#ffffff" stop-opacity="1" id="_5C356F8B-D3D5-47F6-8418-7E4653FD4425__5C356F8B-D3D5-47F6-8418-7E4653FD4425_18"/> 			<stop id="_5C356F8B-D3D5-47F6-8418-7E4653FD4425fill_el" offset="100%" stop-color="#fafad2" stop-opacity="1"/> 		</radialGradient> 		<radialGradient id="_5C356F8B-D3D5-47F6-8418-7E4653FD4425borderbackground" cx="10%" cy="10%" r="100%" fx="10%" fy="10%"> 			<stop offset="0%" stop-color="#ffffff" stop-opacity="1" id="_5C356F8B-D3D5-47F6-8418-7E4653FD4425__5C356F8B-D3D5-47F6-8418-7E4653FD4425_19"/> 			<stop id="_5C356F8B-D3D5-47F6-8418-7E4653FD4425fill_border" offset="100%" stop-color="#000000" stop-opacity="1" stroke="#000000"/> 		</radialGradient> 	</defs> 	 	<rect id="_5C356F8B-D3D5-47F6-8418-7E4653FD4425text_frame" oryx:anchors="bottom top right left" x="1" y="1" width="94" height="79" rx="10" ry="10" stroke="none" stroke-width="0" fill="none"/> 	<rect id="_5C356F8B-D3D5-47F6-8418-7E4653FD4425bg_frame" oryx:resize="vertical horizontal" x="0" y="0" width="100" height="80" rx="10" ry="10" stroke="#000000" stroke-width="1" fill="url(#_5C356F8B-D3D5-47F6-8418-7E4653FD4425background) #ffffcc"/> 		<text font-size="12" id="_5C356F8B-D3D5-47F6-8418-7E4653FD4425text_name" x="50" y="40" oryx:align="middle center" oryx:fittoelem="text_frame" stroke="black" text-anchor="middle" stroke-width="0pt" letter-spacing="-0.01px" fill="#000000" transform="rotate(0 50 40)" visibility="inherit" oryx:fontSize="12"><tspan x="50" y="40" dy="5">expert report</tspan></text>     <g id="_5C356F8B-D3D5-47F6-8418-7E4653FD4425manualTask" transform="scale(0.7,0.7) translate(8,8)" display="none">     	<path oryx:anchors="top left" id="_5C356F8B-D3D5-47F6-8418-7E4653FD4425frame" style="opacity:1;fill:none;fill-opacity:1;stroke-width:1" d="M0.5,3.751l4.083-3.25c0,0,11.166,0.083,12.083,0.083s-2.417,2.917-1.5,2.917     s11.667,0,12.584,0c1.166,1.708-0.168,3.167-0.834,3.667s0.875,1.917-1,4.417c-0.75,0.25,0.75,1.875-1.333,3.333     c-1.167,0.583,0.583,1.542-1.25,2.833c-1.167,0-20.833,0.083-20.833,0.083l-2-1.333V3.751z" stroke="#000000"/> 		<path id="_5C356F8B-D3D5-47F6-8418-7E4653FD4425frame2" oryx:anchors="top left" style="opacity:1;fill:none;stroke-width:2" d="M 13.5 7 L 27 7" stroke="#000000"/> 		<path id="_5C356F8B-D3D5-47F6-8418-7E4653FD4425frame3" oryx:anchors="top left" style="opacity:1;fill:none;stroke-width:2" d="M 13.5 11 L 26 11" stroke="#000000"/> 		<path id="_5C356F8B-D3D5-47F6-8418-7E4653FD4425frame4" oryx:anchors="top left" style="opacity:1;fill:none;stroke-width:1.5" d="M 14 14.5 L 25 14.5" stroke="#000000"/> 		<path id="_5C356F8B-D3D5-47F6-8418-7E4653FD4425frame5" oryx:anchors="top left" style="opacity:1;fill:none;stroke-width:1.5" d="M 8.2 3.1 L 15 3.1" stroke="#000000"/> 	</g> 	 	<g id="_5C356F8B-D3D5-47F6-8418-7E4653FD4425businessRuleTask" transform="scale(0.7,0.7) translate(8,8)" display="none"> 		<rect id="_5C356F8B-D3D5-47F6-8418-7E4653FD4425frame6" oryx:anchors="top left" x="0" y="0" width="22" height="4" style="opacity:1;fill:#B3B1B3;fill-opacity:1;" stroke="#000000"/> 		<rect id="_5C356F8B-D3D5-47F6-8418-7E4653FD4425frame7" oryx:anchors="top left" x="0" y="4" style="opacity:1;fill:none;" width="22" height="12" stroke="#000000"/> 		<path id="_5C356F8B-D3D5-47F6-8418-7E4653FD4425frame8" oryx:anchors="top left" style="opacity:1;fill:none;" d="M 0 10 L 22 10" stroke="#000000"/> 		<path id="_5C356F8B-D3D5-47F6-8418-7E4653FD4425frame9" oryx:anchors="top left" style="opacity:1; fill:none;" d="M 7 4 L 7 16" stroke="#000000"/> 	</g> 	 	<g id="_5C356F8B-D3D5-47F6-8418-7E4653FD4425scriptTask" transform="scale(0.7,0.7) translate(8,8)" display="none"> 		<path oryx:anchors="top left" id="_5C356F8B-D3D5-47F6-8418-7E4653FD4425frame10" style="opacity:1;fill:none;" stroke="#000000" d="M6.402,0.5h14.5c0,0-5.833,2.833-5.833,5.583s4.417,6,4.417,9.167    s-4.167,5.083-4.167,5.083H0.235c0,0,5-2.667,5-5s-4.583-6.75-4.583-9.25S6.402,0.5,6.402,0.5z"/> 		<path oryx:anchors="top left" id="_5C356F8B-D3D5-47F6-8418-7E4653FD4425frame11" style="opacity:1;fill:none;stroke-width:1.5" d="M 3.5 4.5 L 13.5 4.5" stroke="#000000"/> 		<path oryx:anchors="top left" id="_5C356F8B-D3D5-47F6-8418-7E4653FD4425frame12" style="opacity:1;fill:none;stroke-width:1.5" d="M 3.8 8.5 L 13.8 8.5" stroke="#000000"/> 		<path oryx:anchors="top left" id="_5C356F8B-D3D5-47F6-8418-7E4653FD4425frame13" style="opacity:1;fill:none;stroke-width:1.5" d="M 6.3 12.5 L 16.3 12.5" stroke="#000000"/> 		<path oryx:anchors="top left" id="_5C356F8B-D3D5-47F6-8418-7E4653FD4425frame14" style="opacity:1;fill:none;stroke-width:1.5" d="M 6.5 16.5 L 16.5 16.5" stroke="#000000"/> 	</g> 	 	<g id="_5C356F8B-D3D5-47F6-8418-7E4653FD4425userTask" transform="scale(0.7,0.7) translate(8,8)" display="inherit"> 		<path id="_5C356F8B-D3D5-47F6-8418-7E4653FD4425frame15" oryx:anchors="top left" style="opacity:1;fill:#F4F6F7" stroke="#000000" d="M0.585,24.167h24.083v-7.833c0,0-2.333-3.917-7.083-5.167h-9.25    c-4.417,1.333-7.833,5.75-7.833,5.75L0.585,24.167z"/> 		<path id="_5C356F8B-D3D5-47F6-8418-7E4653FD4425frame16" oryx:anchors="top left" style="opacity:1;fill:none" d="M 6 20 L 6 24" stroke="#000000"/> 		<path id="_5C356F8B-D3D5-47F6-8418-7E4653FD4425frame17" oryx:anchors="top left" style="opacity:1;fill:none" d="M 20 20 L 20 24" stroke="#000000"/> 		<circle id="_5C356F8B-D3D5-47F6-8418-7E4653FD4425frame18" oryx:anchors="top left" fill="black" cx="13.002" cy="5.916" r="5.417" stroke="#000000"/> 		<path id="_5C356F8B-D3D5-47F6-8418-7E4653FD4425frame19" oryx:anchors="top left" style="opacity:1;fill:#F0EFF0;" stroke="#000000" d="M8.043,7.083c0,0,2.814-2.426,5.376-1.807s4.624-0.693,4.624-0.693    c0.25,1.688,0.042,3.75-1.458,5.584c0,0,1.083,0.75,1.083,1.5s0.125,1.875-1,3s-5.5,1.25-6.75,0S8.668,12.834,8.668,12    s0.583-1.25,1.25-1.917C8.835,9.5,7.419,7.708,8.043,7.083z"/> 	</g> 	 	<g id="_5C356F8B-D3D5-47F6-8418-7E4653FD4425serviceTask" transform="scale(0.7,0.7) translate(8,8)" display="none"> 		<polygon oryx:anchors="top left" id="_5C356F8B-D3D5-47F6-8418-7E4653FD4425frame20" style="opacity:1;fill:#ffffff" stroke="#000000" points="15.392,5.064 17.954,2.502 20.347,4.895 17.786,7.455     18.729,9.732 22.353,9.732 22.353,13.115 18.731,13.115 17.788,15.392 20.351,17.955 17.958,20.347 15.397,17.786 13.12,18.729     13.12,22.353 9.737,22.353 9.737,18.731 7.46,17.788 4.897,20.35 2.506,17.958 5.066,15.397 4.124,13.12 0.5,13.12 0.5,9.737     4.121,9.737 5.065,7.461 2.503,4.898 4.895,2.506 7.455,5.066 9.732,4.125 9.732,0.5 13.116,0.5 13.116,4.121 "/> 		<circle oryx:anchors="top left" id="_5C356F8B-D3D5-47F6-8418-7E4653FD4425frame21" style="opacity:1;fill:none" stroke="#000000" cx="11.427" cy="11.426" r="3.714"/> 		<polygon oryx:anchors="top left" id="_5C356F8B-D3D5-47F6-8418-7E4653FD4425frame22" style="opacity:1;fill:#ffffff" stroke="#000000" points="21.392,11.064 23.954,8.502 26.347,10.895 23.786,13.455     24.729,15.732 28.353,15.732 28.353,19.115 24.731,19.115 23.788,21.392 26.351,23.955 23.958,26.347 21.397,23.786 19.12,24.729     19.12,28.353 15.737,28.353 15.737,24.731 13.46,23.788 10.897,26.35 8.506,23.958 11.066,21.397 10.124,19.12 6.5,19.12     6.5,15.737 10.121,15.737 11.065,13.461 8.503,10.898 10.895,8.506 13.455,11.066 15.732,10.125 15.732,6.5 19.116,6.5     19.116,10.121 "/> 		<circle oryx:anchors="top left" id="_5C356F8B-D3D5-47F6-8418-7E4653FD4425frame23" style="opacity:1;fill:none;" stroke="#000000" cx="17.427" cy="17.426" r="3.714"/> 	</g> 	 	<g id="_5C356F8B-D3D5-47F6-8418-7E4653FD4425sendTask" display="none"> 		<path id="_5C356F8B-D3D5-47F6-8418-7E4653FD4425stframe24" oryx:anchors="left top" stroke="#FFFFFF" fill="black" stroke-width="1" d="M8,11 L8,21 L24,21 L24,11 L16,17z"/> 		<path id="_5C356F8B-D3D5-47F6-8418-7E4653FD4425stframe25" oryx:anchors="left top" stroke="#FFFFFF" fill="black" stroke-width="1" d="M7,10 L16,17 L25 10z"/> 	</g> 	 	<g id="_5C356F8B-D3D5-47F6-8418-7E4653FD4425receiveTask" display="none"> 		<path id="_5C356F8B-D3D5-47F6-8418-7E4653FD4425frame26" oryx:anchors="left top" stroke="#000000" fill="none" stroke-width="1" d="M8,11 L8,21 L24,21 L24,11z M8,11 L16,17 L24,11"/> 	</g> 	 	<g id="_5C356F8B-D3D5-47F6-8418-7E4653FD4425none" display="inherit"/>  	<g id="_5C356F8B-D3D5-47F6-8418-7E4653FD4425sequential" display="none">         <path oryx:anchors="bottom" fill="none" stroke="#000000" stroke-width="2" d="M46,76h10M46,72h10 M46,68h10" id="_5C356F8B-D3D5-47F6-8418-7E4653FD4425__5C356F8B-D3D5-47F6-8418-7E4653FD4425_20"/>     </g>   </g></g><g class="children" style="overflow:hidden"/><g class="edge"/></g><g class="controls"><g class="dockers"/><g class="magnets" transform="translate(81, 63)"><g pointer-events="all" display="none" transform="translate(-7, 12)"><circle cx="8" cy="8" r="4" stroke="none" fill="red" fill-opacity="0.3"/></g><g pointer-events="all" display="none" transform="translate(-7, 32)"><circle cx="8" cy="8" r="4" stroke="none" fill="red" fill-opacity="0.3"/></g><g pointer-events="all" display="none" transform="translate(-7, 52)"><circle cx="8" cy="8" r="4" stroke="none" fill="red" fill-opacity="0.3"/></g><g pointer-events="all" display="none" transform="translate(17, 71)"><circle cx="8" cy="8" r="4" stroke="none" fill="red" fill-opacity="0.3"/></g><g pointer-events="all" display="none" transform="translate(42, 71)"><circle cx="8" cy="8" r="4" stroke="none" fill="red" fill-opacity="0.3"/></g><g pointer-events="all" display="none" transform="translate(67, 71)"><circle cx="8" cy="8" r="4" stroke="none" fill="red" fill-opacity="0.3"/></g><g pointer-events="all" display="none" transform="translate(91, 12)"><circle cx="8" cy="8" r="4" stroke="none" fill="red" fill-opacity="0.3"/></g><g pointer-events="all" display="none" transform="translate(91, 32)"><circle cx="8" cy="8" r="4" stroke="none" fill="red" fill-opacity="0.3"/></g><g pointer-events="all" display="none" transform="translate(91, 52)"><circle cx="8" cy="8" r="4" stroke="none" fill="red" fill-opacity="0.3"/></g><g pointer-events="all" display="none" transform="translate(17, -7)"><circle cx="8" cy="8" r="4" stroke="none" fill="red" fill-opacity="0.3"/></g><g pointer-events="all" display="none" transform="translate(42, -7)"><circle cx="8" cy="8" r="4" stroke="none" fill="red" fill-opacity="0.3"/></g><g pointer-events="all" display="none" transform="translate(67, -7)"><circle cx="8" cy="8" r="4" stroke="none" fill="red" fill-opacity="0.3"/></g><g pointer-events="all" display="none" transform="translate(42, 32)"><circle cx="8" cy="8" r="4" stroke="none" fill="red" fill-opacity="0.3"/></g></g></g></g><g id="_0381C02F-BECF-4DEA-A8FA-4359795207D4" bpmn2nodeid="_9283623F-DA6C-4058-943E-62524142C637"><g class="stencils" transform="translate(278, 63)"><g class="me"><g pointer-events="fill" oryx:minimumSize="50 40" id="_0381C02F-BECF-4DEA-A8FA-4359795207D4">   	<defs id="_0381C02F-BECF-4DEA-A8FA-4359795207D4__0381C02F-BECF-4DEA-A8FA-4359795207D4_17"> 		<radialGradient id="_0381C02F-BECF-4DEA-A8FA-4359795207D4background" cx="10%" cy="10%" r="100%" fx="10%" fy="10%"> 			<stop offset="0%" stop-color="#ffffff" stop-opacity="1" id="_0381C02F-BECF-4DEA-A8FA-4359795207D4__0381C02F-BECF-4DEA-A8FA-4359795207D4_18"/> 			<stop id="_0381C02F-BECF-4DEA-A8FA-4359795207D4fill_el" offset="100%" stop-color="#FFFFFF" stop-opacity="1"/> 		</radialGradient> 		<radialGradient id="_0381C02F-BECF-4DEA-A8FA-4359795207D4borderbackground" cx="10%" cy="10%" r="100%" fx="10%" fy="10%"> 			<stop offset="0%" stop-color="#ffffff" stop-opacity="1" id="_0381C02F-BECF-4DEA-A8FA-4359795207D4__0381C02F-BECF-4DEA-A8FA-4359795207D4_19"/> 			<stop id="_0381C02F-BECF-4DEA-A8FA-4359795207D4fill_border" offset="100%" stop-color="#000000" stop-opacity="1" stroke="#000000"/> 		</radialGradient> 	</defs> 	 	<rect id="_0381C02F-BECF-4DEA-A8FA-4359795207D4text_frame" oryx:anchors="bottom top right left" x="1" y="1" width="94" height="79" rx="10" ry="10" stroke="none" stroke-width="0" fill="none"/> 	<rect id="_0381C02F-BECF-4DEA-A8FA-4359795207D4bg_frame" oryx:resize="vertical horizontal" x="0" y="0" width="100" height="80" rx="10" ry="10" stroke="#000000" stroke-width="1" fill="url(#_0381C02F-BECF-4DEA-A8FA-4359795207D4background) #ffffcc"/> 		<text font-size="12" id="_0381C02F-BECF-4DEA-A8FA-4359795207D4text_name" x="50" y="40" oryx:align="middle center" oryx:fittoelem="text_frame" stroke="black" text-anchor="middle" stroke-width="0pt" letter-spacing="-0.01px" fill="#000000" transform="rotate(0 50 40)" visibility="inherit" oryx:fontSize="12"><tspan x="50" y="40" dy="5">doctor report</tspan></text>     <g id="_0381C02F-BECF-4DEA-A8FA-4359795207D4manualTask" transform="scale(0.7,0.7) translate(8,8)" display="none">     	<path oryx:anchors="top left" id="_0381C02F-BECF-4DEA-A8FA-4359795207D4frame" style="opacity:1;fill:none;fill-opacity:1;stroke-width:1" d="M0.5,3.751l4.083-3.25c0,0,11.166,0.083,12.083,0.083s-2.417,2.917-1.5,2.917     s11.667,0,12.584,0c1.166,1.708-0.168,3.167-0.834,3.667s0.875,1.917-1,4.417c-0.75,0.25,0.75,1.875-1.333,3.333     c-1.167,0.583,0.583,1.542-1.25,2.833c-1.167,0-20.833,0.083-20.833,0.083l-2-1.333V3.751z" stroke="#000000"/> 		<path id="_0381C02F-BECF-4DEA-A8FA-4359795207D4frame2" oryx:anchors="top left" style="opacity:1;fill:none;stroke-width:2" d="M 13.5 7 L 27 7" stroke="#000000"/> 		<path id="_0381C02F-BECF-4DEA-A8FA-4359795207D4frame3" oryx:anchors="top left" style="opacity:1;fill:none;stroke-width:2" d="M 13.5 11 L 26 11" stroke="#000000"/> 		<path id="_0381C02F-BECF-4DEA-A8FA-4359795207D4frame4" oryx:anchors="top left" style="opacity:1;fill:none;stroke-width:1.5" d="M 14 14.5 L 25 14.5" stroke="#000000"/> 		<path id="_0381C02F-BECF-4DEA-A8FA-4359795207D4frame5" oryx:anchors="top left" style="opacity:1;fill:none;stroke-width:1.5" d="M 8.2 3.1 L 15 3.1" stroke="#000000"/> 	</g> 	 	<g id="_0381C02F-BECF-4DEA-A8FA-4359795207D4businessRuleTask" transform="scale(0.7,0.7) translate(8,8)" display="none"> 		<rect id="_0381C02F-BECF-4DEA-A8FA-4359795207D4frame6" oryx:anchors="top left" x="0" y="0" width="22" height="4" style="opacity:1;fill:#B3B1B3;fill-opacity:1;" stroke="#000000"/> 		<rect id="_0381C02F-BECF-4DEA-A8FA-4359795207D4frame7" oryx:anchors="top left" x="0" y="4" style="opacity:1;fill:none;" width="22" height="12" stroke="#000000"/> 		<path id="_0381C02F-BECF-4DEA-A8FA-4359795207D4frame8" oryx:anchors="top left" style="opacity:1;fill:none;" d="M 0 10 L 22 10" stroke="#000000"/> 		<path id="_0381C02F-BECF-4DEA-A8FA-4359795207D4frame9" oryx:anchors="top left" style="opacity:1; fill:none;" d="M 7 4 L 7 16" stroke="#000000"/> 	</g> 	 	<g id="_0381C02F-BECF-4DEA-A8FA-4359795207D4scriptTask" transform="scale(0.7,0.7) translate(8,8)" display="none"> 		<path oryx:anchors="top left" id="_0381C02F-BECF-4DEA-A8FA-4359795207D4frame10" style="opacity:1;fill:none;" stroke="#000000" d="M6.402,0.5h14.5c0,0-5.833,2.833-5.833,5.583s4.417,6,4.417,9.167    s-4.167,5.083-4.167,5.083H0.235c0,0,5-2.667,5-5s-4.583-6.75-4.583-9.25S6.402,0.5,6.402,0.5z"/> 		<path oryx:anchors="top left" id="_0381C02F-BECF-4DEA-A8FA-4359795207D4frame11" style="opacity:1;fill:none;stroke-width:1.5" d="M 3.5 4.5 L 13.5 4.5" stroke="#000000"/> 		<path oryx:anchors="top left" id="_0381C02F-BECF-4DEA-A8FA-4359795207D4frame12" style="opacity:1;fill:none;stroke-width:1.5" d="M 3.8 8.5 L 13.8 8.5" stroke="#000000"/> 		<path oryx:anchors="top left" id="_0381C02F-BECF-4DEA-A8FA-4359795207D4frame13" style="opacity:1;fill:none;stroke-width:1.5" d="M 6.3 12.5 L 16.3 12.5" stroke="#000000"/> 		<path oryx:anchors="top left" id="_0381C02F-BECF-4DEA-A8FA-4359795207D4frame14" style="opacity:1;fill:none;stroke-width:1.5" d="M 6.5 16.5 L 16.5 16.5" stroke="#000000"/> 	</g> 	 	<g id="_0381C02F-BECF-4DEA-A8FA-4359795207D4userTask" transform="scale(0.7,0.7) translate(8,8)" display="inherit"> 		<path id="_0381C02F-BECF-4DEA-A8FA-4359795207D4frame15" oryx:anchors="top left" style="opacity:1;fill:#F4F6F7" stroke="#000000" d="M0.585,24.167h24.083v-7.833c0,0-2.333-3.917-7.083-5.167h-9.25    c-4.417,1.333-7.833,5.75-7.833,5.75L0.585,24.167z"/> 		<path id="_0381C02F-BECF-4DEA-A8FA-4359795207D4frame16" oryx:anchors="top left" style="opacity:1;fill:none" d="M 6 20 L 6 24" stroke="#000000"/> 		<path id="_0381C02F-BECF-4DEA-A8FA-4359795207D4frame17" oryx:anchors="top left" style="opacity:1;fill:none" d="M 20 20 L 20 24" stroke="#000000"/> 		<circle id="_0381C02F-BECF-4DEA-A8FA-4359795207D4frame18" oryx:anchors="top left" fill="black" cx="13.002" cy="5.916" r="5.417" stroke="#000000"/> 		<path id="_0381C02F-BECF-4DEA-A8FA-4359795207D4frame19" oryx:anchors="top left" style="opacity:1;fill:#F0EFF0;" stroke="#000000" d="M8.043,7.083c0,0,2.814-2.426,5.376-1.807s4.624-0.693,4.624-0.693    c0.25,1.688,0.042,3.75-1.458,5.584c0,0,1.083,0.75,1.083,1.5s0.125,1.875-1,3s-5.5,1.25-6.75,0S8.668,12.834,8.668,12    s0.583-1.25,1.25-1.917C8.835,9.5,7.419,7.708,8.043,7.083z"/> 	</g> 	 	<g id="_0381C02F-BECF-4DEA-A8FA-4359795207D4serviceTask" transform="scale(0.7,0.7) translate(8,8)" display="none"> 		<polygon oryx:anchors="top left" id="_0381C02F-BECF-4DEA-A8FA-4359795207D4frame20" style="opacity:1;fill:#ffffff" stroke="#000000" points="15.392,5.064 17.954,2.502 20.347,4.895 17.786,7.455     18.729,9.732 22.353,9.732 22.353,13.115 18.731,13.115 17.788,15.392 20.351,17.955 17.958,20.347 15.397,17.786 13.12,18.729     13.12,22.353 9.737,22.353 9.737,18.731 7.46,17.788 4.897,20.35 2.506,17.958 5.066,15.397 4.124,13.12 0.5,13.12 0.5,9.737     4.121,9.737 5.065,7.461 2.503,4.898 4.895,2.506 7.455,5.066 9.732,4.125 9.732,0.5 13.116,0.5 13.116,4.121 "/> 		<circle oryx:anchors="top left" id="_0381C02F-BECF-4DEA-A8FA-4359795207D4frame21" style="opacity:1;fill:none" stroke="#000000" cx="11.427" cy="11.426" r="3.714"/> 		<polygon oryx:anchors="top left" id="_0381C02F-BECF-4DEA-A8FA-4359795207D4frame22" style="opacity:1;fill:#ffffff" stroke="#000000" points="21.392,11.064 23.954,8.502 26.347,10.895 23.786,13.455     24.729,15.732 28.353,15.732 28.353,19.115 24.731,19.115 23.788,21.392 26.351,23.955 23.958,26.347 21.397,23.786 19.12,24.729     19.12,28.353 15.737,28.353 15.737,24.731 13.46,23.788 10.897,26.35 8.506,23.958 11.066,21.397 10.124,19.12 6.5,19.12     6.5,15.737 10.121,15.737 11.065,13.461 8.503,10.898 10.895,8.506 13.455,11.066 15.732,10.125 15.732,6.5 19.116,6.5     19.116,10.121 "/> 		<circle oryx:anchors="top left" id="_0381C02F-BECF-4DEA-A8FA-4359795207D4frame23" style="opacity:1;fill:none;" stroke="#000000" cx="17.427" cy="17.426" r="3.714"/> 	</g> 	 	<g id="_0381C02F-BECF-4DEA-A8FA-4359795207D4sendTask" display="none"> 		<path id="_0381C02F-BECF-4DEA-A8FA-4359795207D4stframe24" oryx:anchors="left top" stroke="#FFFFFF" fill="black" stroke-width="1" d="M8,11 L8,21 L24,21 L24,11 L16,17z"/> 		<path id="_0381C02F-BECF-4DEA-A8FA-4359795207D4stframe25" oryx:anchors="left top" stroke="#FFFFFF" fill="black" stroke-width="1" d="M7,10 L16,17 L25 10z"/> 	</g> 	 	<g id="_0381C02F-BECF-4DEA-A8FA-4359795207D4receiveTask" display="none"> 		<path id="_0381C02F-BECF-4DEA-A8FA-4359795207D4frame26" oryx:anchors="left top" stroke="#000000" fill="none" stroke-width="1" d="M8,11 L8,21 L24,21 L24,11z M8,11 L16,17 L24,11"/> 	</g> 	 	<g id="_0381C02F-BECF-4DEA-A8FA-4359795207D4none" display="inherit"/>  	<g id="_0381C02F-BECF-4DEA-A8FA-4359795207D4sequential" display="none">         <path oryx:anchors="bottom" fill="none" stroke="#000000" stroke-width="2" d="M46,76h10M46,72h10 M46,68h10" id="_0381C02F-BECF-4DEA-A8FA-4359795207D4__0381C02F-BECF-4DEA-A8FA-4359795207D4_20"/>     </g>   </g></g><g class="children" style="overflow:hidden"/><g class="edge"/></g><g class="controls"><g class="dockers"/><g class="magnets" transform="translate(278, 63)"><g pointer-events="all" display="none" transform="translate(-7, 12)"><circle cx="8" cy="8" r="4" stroke="none" fill="red" fill-opacity="0.3"/></g><g pointer-events="all" display="none" transform="translate(-7, 32)"><circle cx="8" cy="8" r="4" stroke="none" fill="red" fill-opacity="0.3"/></g><g pointer-events="all" display="none" transform="translate(-7, 52)"><circle cx="8" cy="8" r="4" stroke="none" fill="red" fill-opacity="0.3"/></g><g pointer-events="all" display="none" transform="translate(17, 71)"><circle cx="8" cy="8" r="4" stroke="none" fill="red" fill-opacity="0.3"/></g><g pointer-events="all" display="none" transform="translate(42, 71)"><circle cx="8" cy="8" r="4" stroke="none" fill="red" fill-opacity="0.3"/></g><g pointer-events="all" display="none" transform="translate(67, 71)"><circle cx="8" cy="8" r="4" stroke="none" fill="red" fill-opacity="0.3"/></g><g pointer-events="all" display="none" transform="translate(91, 12)"><circle cx="8" cy="8" r="4" stroke="none" fill="red" fill-opacity="0.3"/></g><g pointer-events="all" display="none" transform="translate(91, 32)"><circle cx="8" cy="8" r="4" stroke="none" fill="red" fill-opacity="0.3"/></g><g pointer-events="all" display="none" transform="translate(91, 52)"><circle cx="8" cy="8" r="4" stroke="none" fill="red" fill-opacity="0.3"/></g><g pointer-events="all" display="none" transform="translate(17, -7)"><circle cx="8" cy="8" r="4" stroke="none" fill="red" fill-opacity="0.3"/></g><g pointer-events="all" display="none" transform="translate(42, -7)"><circle cx="8" cy="8" r="4" stroke="none" fill="red" fill-opacity="0.3"/></g><g pointer-events="all" display="none" transform="translate(67, -7)"><circle cx="8" cy="8" r="4" stroke="none" fill="red" fill-opacity="0.3"/></g><g pointer-events="all" display="none" transform="translate(42, 32)"><circle cx="8" cy="8" r="4" stroke="none" fill="red" fill-opacity="0.3"/></g></g></g></g><g id="_245EC9A6-FB0D-4B8C-8932-3E2634E80C20" bpmn2nodeid="_37796832-89C5-4140-B636-14B3BFFD6EA4"><g class="stencils" transform="translate(488, 63)"><g class="me"><g pointer-events="fill" oryx:minimumSize="50 40" id="_245EC9A6-FB0D-4B8C-8932-3E2634E80C20">   	<defs id="_245EC9A6-FB0D-4B8C-8932-3E2634E80C20__245EC9A6-FB0D-4B8C-8932-3E2634E80C20_17"> 		<radialGradient id="_245EC9A6-FB0D-4B8C-8932-3E2634E80C20background" cx="10%" cy="10%" r="100%" fx="10%" fy="10%"> 			<stop offset="0%" stop-color="#ffffff" stop-opacity="1" id="_245EC9A6-FB0D-4B8C-8932-3E2634E80C20__245EC9A6-FB0D-4B8C-8932-3E2634E80C20_18"/> 			<stop id="_245EC9A6-FB0D-4B8C-8932-3E2634E80C20fill_el" offset="100%" stop-color="#fafad2" stop-opacity="1"/> 		</radialGradient> 		<radialGradient id="_245EC9A6-FB0D-4B8C-8932-3E2634E80C20borderbackground" cx="10%" cy="10%" r="100%" fx="10%" fy="10%"> 			<stop offset="0%" stop-color="#ffffff" stop-opacity="1" id="_245EC9A6-FB0D-4B8C-8932-3E2634E80C20__245EC9A6-FB0D-4B8C-8932-3E2634E80C20_19"/> 			<stop id="_245EC9A6-FB0D-4B8C-8932-3E2634E80C20fill_border" offset="100%" stop-color="#000000" stop-opacity="1" stroke="#000000"/> 		</radialGradient> 	</defs> 	 	<rect id="_245EC9A6-FB0D-4B8C-8932-3E2634E80C20text_frame" oryx:anchors="bottom top right left" x="1" y="1" width="94" height="79" rx="10" ry="10" stroke="none" stroke-width="0" fill="none"/> 	<rect id="_245EC9A6-FB0D-4B8C-8932-3E2634E80C20bg_frame" oryx:resize="vertical horizontal" x="0" y="0" width="100" height="80" rx="10" ry="10" stroke="#000000" stroke-width="1" fill="url(#_245EC9A6-FB0D-4B8C-8932-3E2634E80C20background) #ffffcc"/> 		<text font-size="12" id="_245EC9A6-FB0D-4B8C-8932-3E2634E80C20text_name" x="50" y="40" oryx:align="middle center" oryx:fittoelem="text_frame" stroke="black" text-anchor="middle" stroke-width="0pt" letter-spacing="-0.01px" fill="#000000" transform="rotate(0 50 40)" visibility="inherit" oryx:fontSize="12"><tspan x="50" y="40" dy="5">customer call</tspan></text>     <g id="_245EC9A6-FB0D-4B8C-8932-3E2634E80C20manualTask" transform="scale(0.7,0.7) translate(8,8)" display="none">     	<path oryx:anchors="top left" id="_245EC9A6-FB0D-4B8C-8932-3E2634E80C20frame" style="opacity:1;fill:none;fill-opacity:1;stroke-width:1" d="M0.5,3.751l4.083-3.25c0,0,11.166,0.083,12.083,0.083s-2.417,2.917-1.5,2.917     s11.667,0,12.584,0c1.166,1.708-0.168,3.167-0.834,3.667s0.875,1.917-1,4.417c-0.75,0.25,0.75,1.875-1.333,3.333     c-1.167,0.583,0.583,1.542-1.25,2.833c-1.167,0-20.833,0.083-20.833,0.083l-2-1.333V3.751z" stroke="#000000"/> 		<path id="_245EC9A6-FB0D-4B8C-8932-3E2634E80C20frame2" oryx:anchors="top left" style="opacity:1;fill:none;stroke-width:2" d="M 13.5 7 L 27 7" stroke="#000000"/> 		<path id="_245EC9A6-FB0D-4B8C-8932-3E2634E80C20frame3" oryx:anchors="top left" style="opacity:1;fill:none;stroke-width:2" d="M 13.5 11 L 26 11" stroke="#000000"/> 		<path id="_245EC9A6-FB0D-4B8C-8932-3E2634E80C20frame4" oryx:anchors="top left" style="opacity:1;fill:none;stroke-width:1.5" d="M 14 14.5 L 25 14.5" stroke="#000000"/> 		<path id="_245EC9A6-FB0D-4B8C-8932-3E2634E80C20frame5" oryx:anchors="top left" style="opacity:1;fill:none;stroke-width:1.5" d="M 8.2 3.1 L 15 3.1" stroke="#000000"/> 	</g> 	 	<g id="_245EC9A6-FB0D-4B8C-8932-3E2634E80C20businessRuleTask" transform="scale(0.7,0.7) translate(8,8)" display="none"> 		<rect id="_245EC9A6-FB0D-4B8C-8932-3E2634E80C20frame6" oryx:anchors="top left" x="0" y="0" width="22" height="4" style="opacity:1;fill:#B3B1B3;fill-opacity:1;" stroke="#000000"/> 		<rect id="_245EC9A6-FB0D-4B8C-8932-3E2634E80C20frame7" oryx:anchors="top left" x="0" y="4" style="opacity:1;fill:none;" width="22" height="12" stroke="#000000"/> 		<path id="_245EC9A6-FB0D-4B8C-8932-3E2634E80C20frame8" oryx:anchors="top left" style="opacity:1;fill:none;" d="M 0 10 L 22 10" stroke="#000000"/> 		<path id="_245EC9A6-FB0D-4B8C-8932-3E2634E80C20frame9" oryx:anchors="top left" style="opacity:1; fill:none;" d="M 7 4 L 7 16" stroke="#000000"/> 	</g> 	 	<g id="_245EC9A6-FB0D-4B8C-8932-3E2634E80C20scriptTask" transform="scale(0.7,0.7) translate(8,8)" display="none"> 		<path oryx:anchors="top left" id="_245EC9A6-FB0D-4B8C-8932-3E2634E80C20frame10" style="opacity:1;fill:none;" stroke="#000000" d="M6.402,0.5h14.5c0,0-5.833,2.833-5.833,5.583s4.417,6,4.417,9.167    s-4.167,5.083-4.167,5.083H0.235c0,0,5-2.667,5-5s-4.583-6.75-4.583-9.25S6.402,0.5,6.402,0.5z"/> 		<path oryx:anchors="top left" id="_245EC9A6-FB0D-4B8C-8932-3E2634E80C20frame11" style="opacity:1;fill:none;stroke-width:1.5" d="M 3.5 4.5 L 13.5 4.5" stroke="#000000"/> 		<path oryx:anchors="top left" id="_245EC9A6-FB0D-4B8C-8932-3E2634E80C20frame12" style="opacity:1;fill:none;stroke-width:1.5" d="M 3.8 8.5 L 13.8 8.5" stroke="#000000"/> 		<path oryx:anchors="top left" id="_245EC9A6-FB0D-4B8C-8932-3E2634E80C20frame13" style="opacity:1;fill:none;stroke-width:1.5" d="M 6.3 12.5 L 16.3 12.5" stroke="#000000"/> 		<path oryx:anchors="top left" id="_245EC9A6-FB0D-4B8C-8932-3E2634E80C20frame14" style="opacity:1;fill:none;stroke-width:1.5" d="M 6.5 16.5 L 16.5 16.5" stroke="#000000"/> 	</g> 	 	<g id="_245EC9A6-FB0D-4B8C-8932-3E2634E80C20userTask" transform="scale(0.7,0.7) translate(8,8)" display="inherit"> 		<path id="_245EC9A6-FB0D-4B8C-8932-3E2634E80C20frame15" oryx:anchors="top left" style="opacity:1;fill:#F4F6F7" stroke="#000000" d="M0.585,24.167h24.083v-7.833c0,0-2.333-3.917-7.083-5.167h-9.25    c-4.417,1.333-7.833,5.75-7.833,5.75L0.585,24.167z"/> 		<path id="_245EC9A6-FB0D-4B8C-8932-3E2634E80C20frame16" oryx:anchors="top left" style="opacity:1;fill:none" d="M 6 20 L 6 24" stroke="#000000"/> 		<path id="_245EC9A6-FB0D-4B8C-8932-3E2634E80C20frame17" oryx:anchors="top left" style="opacity:1;fill:none" d="M 20 20 L 20 24" stroke="#000000"/> 		<circle id="_245EC9A6-FB0D-4B8C-8932-3E2634E80C20frame18" oryx:anchors="top left" fill="black" cx="13.002" cy="5.916" r="5.417" stroke="#000000"/> 		<path id="_245EC9A6-FB0D-4B8C-8932-3E2634E80C20frame19" oryx:anchors="top left" style="opacity:1;fill:#F0EFF0;" stroke="#000000" d="M8.043,7.083c0,0,2.814-2.426,5.376-1.807s4.624-0.693,4.624-0.693    c0.25,1.688,0.042,3.75-1.458,5.584c0,0,1.083,0.75,1.083,1.5s0.125,1.875-1,3s-5.5,1.25-6.75,0S8.668,12.834,8.668,12    s0.583-1.25,1.25-1.917C8.835,9.5,7.419,7.708,8.043,7.083z"/> 	</g> 	 	<g id="_245EC9A6-FB0D-4B8C-8932-3E2634E80C20serviceTask" transform="scale(0.7,0.7) translate(8,8)" display="none"> 		<polygon oryx:anchors="top left" id="_245EC9A6-FB0D-4B8C-8932-3E2634E80C20frame20" style="opacity:1;fill:#ffffff" stroke="#000000" points="15.392,5.064 17.954,2.502 20.347,4.895 17.786,7.455     18.729,9.732 22.353,9.732 22.353,13.115 18.731,13.115 17.788,15.392 20.351,17.955 17.958,20.347 15.397,17.786 13.12,18.729     13.12,22.353 9.737,22.353 9.737,18.731 7.46,17.788 4.897,20.35 2.506,17.958 5.066,15.397 4.124,13.12 0.5,13.12 0.5,9.737     4.121,9.737 5.065,7.461 2.503,4.898 4.895,2.506 7.455,5.066 9.732,4.125 9.732,0.5 13.116,0.5 13.116,4.121 "/> 		<circle oryx:anchors="top left" id="_245EC9A6-FB0D-4B8C-8932-3E2634E80C20frame21" style="opacity:1;fill:none" stroke="#000000" cx="11.427" cy="11.426" r="3.714"/> 		<polygon oryx:anchors="top left" id="_245EC9A6-FB0D-4B8C-8932-3E2634E80C20frame22" style="opacity:1;fill:#ffffff" stroke="#000000" points="21.392,11.064 23.954,8.502 26.347,10.895 23.786,13.455     24.729,15.732 28.353,15.732 28.353,19.115 24.731,19.115 23.788,21.392 26.351,23.955 23.958,26.347 21.397,23.786 19.12,24.729     19.12,28.353 15.737,28.353 15.737,24.731 13.46,23.788 10.897,26.35 8.506,23.958 11.066,21.397 10.124,19.12 6.5,19.12     6.5,15.737 10.121,15.737 11.065,13.461 8.503,10.898 10.895,8.506 13.455,11.066 15.732,10.125 15.732,6.5 19.116,6.5     19.116,10.121 "/> 		<circle oryx:anchors="top left" id="_245EC9A6-FB0D-4B8C-8932-3E2634E80C20frame23" style="opacity:1;fill:none;" stroke="#000000" cx="17.427" cy="17.426" r="3.714"/> 	</g> 	 	<g id="_245EC9A6-FB0D-4B8C-8932-3E2634E80C20sendTask" display="none"> 		<path id="_245EC9A6-FB0D-4B8C-8932-3E2634E80C20stframe24" oryx:anchors="left top" stroke="#FFFFFF" fill="black" stroke-width="1" d="M8,11 L8,21 L24,21 L24,11 L16,17z"/> 		<path id="_245EC9A6-FB0D-4B8C-8932-3E2634E80C20stframe25" oryx:anchors="left top" stroke="#FFFFFF" fill="black" stroke-width="1" d="M7,10 L16,17 L25 10z"/> 	</g> 	 	<g id="_245EC9A6-FB0D-4B8C-8932-3E2634E80C20receiveTask" display="none"> 		<path id="_245EC9A6-FB0D-4B8C-8932-3E2634E80C20frame26" oryx:anchors="left top" stroke="#000000" fill="none" stroke-width="1" d="M8,11 L8,21 L24,21 L24,11z M8,11 L16,17 L24,11"/> 	</g> 	 	<g id="_245EC9A6-FB0D-4B8C-8932-3E2634E80C20none" display="inherit"/>  	<g id="_245EC9A6-FB0D-4B8C-8932-3E2634E80C20sequential" display="none">         <path oryx:anchors="bottom" fill="none" stroke="#000000" stroke-width="2" d="M46,76h10M46,72h10 M46,68h10" id="_245EC9A6-FB0D-4B8C-8932-3E2634E80C20__245EC9A6-FB0D-4B8C-8932-3E2634E80C20_20"/>     </g>   </g></g><g class="children" style="overflow:hidden"/><g class="edge"/></g><g class="controls"><g class="dockers"/><g class="magnets" transform="translate(488, 63)"><g pointer-events="all" display="none" transform="translate(-7, 12)"><circle cx="8" cy="8" r="4" stroke="none" fill="red" fill-opacity="0.3"/></g><g pointer-events="all" display="none" transform="translate(-7, 32)"><circle cx="8" cy="8" r="4" stroke="none" fill="red" fill-opacity="0.3"/></g><g pointer-events="all" display="none" transform="translate(-7, 52)"><circle cx="8" cy="8" r="4" stroke="none" fill="red" fill-opacity="0.3"/></g><g pointer-events="all" display="none" transform="translate(17, 71)"><circle cx="8" cy="8" r="4" stroke="none" fill="red" fill-opacity="0.3"/></g><g pointer-events="all" display="none" transform="translate(42, 71)"><circle cx="8" cy="8" r="4" stroke="none" fill="red" fill-opacity="0.3"/></g><g pointer-events="all" display="none" transform="translate(67, 71)"><circle cx="8" cy="8" r="4" stroke="none" fill="red" fill-opacity="0.3"/></g><g pointer-events="all" display="none" transform="translate(91, 12)"><circle cx="8" cy="8" r="4" stroke="none" fill="red" fill-opacity="0.3"/></g><g pointer-events="all" display="none" transform="translate(91, 32)"><circle cx="8" cy="8" r="4" stroke="none" fill="red" fill-opacity="0.3"/></g><g pointer-events="all" display="none" transform="translate(91, 52)"><circle cx="8" cy="8" r="4" stroke="none" fill="red" fill-opacity="0.3"/></g><g pointer-events="all" display="none" transform="translate(17, -7)"><circle cx="8" cy="8" r="4" stroke="none" fill="red" fill-opacity="0.3"/></g><g pointer-events="all" display="none" transform="translate(42, -7)"><circle cx="8" cy="8" r="4" stroke="none" fill="red" fill-opacity="0.3"/></g><g pointer-events="all" display="none" transform="translate(67, -7)"><circle cx="8" cy="8" r="4" stroke="none" fill="red" fill-opacity="0.3"/></g><g pointer-events="all" display="none" transform="translate(42, 32)"><circle cx="8" cy="8" r="4" stroke="none" fill="red" fill-opacity="0.3"/></g></g></g></g></g><g class="edge"/></g><g class="controls"><g class="dockers"/><g class="magnets" transform="translate(97, 270)"><g pointer-events="all" display="none" transform="translate(-7, 51.06249999999999)"><circle cx="8" cy="8" r="4" stroke="none" fill="red" fill-opacity="0.3"/></g><g pointer-events="all" display="none" transform="translate(-7, 86.5)"><circle cx="8" cy="8" r="4" stroke="none" fill="red" fill-opacity="0.3"/></g><g pointer-events="all" display="none" transform="translate(-7, 121.9375)"><circle cx="8" cy="8" r="4" stroke="none" fill="red" fill-opacity="0.3"/></g><g pointer-events="all" display="none" transform="translate(216.35, 180)"><circle cx="8" cy="8" r="4" stroke="none" fill="red" fill-opacity="0.3"/></g><g pointer-events="all" display="none" transform="translate(312.5, 180)"><circle cx="8" cy="8" r="4" stroke="none" fill="red" fill-opacity="0.3"/></g><g pointer-events="all" display="none" transform="translate(408.65000000000003, 180)"><circle cx="8" cy="8" r="4" stroke="none" fill="red" fill-opacity="0.3"/></g><g pointer-events="all" display="none" transform="translate(632, 51.06249999999999)"><circle cx="8" cy="8" r="4" stroke="none" fill="red" fill-opacity="0.3"/></g><g pointer-events="all" display="none" transform="translate(632, 86.5)"><circle cx="8" cy="8" r="4" stroke="none" fill="red" fill-opacity="0.3"/></g><g pointer-events="all" display="none" transform="translate(632, 121.9375)"><circle cx="8" cy="8" r="4" stroke="none" fill="red" fill-opacity="0.3"/></g><g pointer-events="all" display="none" transform="translate(216.35, -7)"><circle cx="8" cy="8" r="4" stroke="none" fill="red" fill-opacity="0.3"/></g><g pointer-events="all" display="none" transform="translate(312.5, -7)"><circle cx="8" cy="8" r="4" stroke="none" fill="red" fill-opacity="0.3"/></g><g pointer-events="all" display="none" transform="translate(408.65000000000003, -7)"><circle cx="8" cy="8" r="4" stroke="none" fill="red" fill-opacity="0.3"/></g><g pointer-events="all" display="none" transform="translate(312.5, 86.5)"><circle cx="8" cy="8" r="4" stroke="none" fill="red" fill-opacity="0.3"/></g></g></g></g><g id="_17051EC2-3688-491C-A172-8FB3ED241423" bpmn2nodeid="_C29AB570-F87D-4E76-ADED-30D417CF7BBB"><g class="stencils" transform="translate(465, 540)"><g class="me"><g pointer-events="fill" oryx:minimumSize="50 40" id="_17051EC2-3688-491C-A172-8FB3ED241423">
  	<defs id="_17051EC2-3688-491C-A172-8FB3ED241423__17051EC2-3688-491C-A172-8FB3ED241423_17">
		<radialGradient id="_17051EC2-3688-491C-A172-8FB3ED241423background" cx="10%" cy="10%" r="100%" fx="10%" fy="10%">
			<stop offset="0%" stop-color="#ffffff" stop-opacity="1" id="_17051EC2-3688-491C-A172-8FB3ED241423__17051EC2-3688-491C-A172-8FB3ED241423_18"/>
			<stop id="_17051EC2-3688-491C-A172-8FB3ED241423fill_el" offset="100%" stop-color="#fafad2" stop-opacity="1"/>
		</radialGradient>
	</defs>

	<rect id="_17051EC2-3688-491C-A172-8FB3ED241423text_frame" oryx:anchors="bottom top right left" x="1" y="1" width="94" height="79" rx="10" ry="10" stroke="none" stroke-width="0" fill="none"/>
	<rect id="_17051EC2-3688-491C-A172-8FB3ED241423bg_frame" oryx:resize="vertical horizontal" x="0" y="0" width="100" height="80" rx="10" ry="10" stroke="#000000" stroke-width="1" fill="url(#_17051EC2-3688-491C-A172-8FB3ED241423background) #ffffcc"/>
		<text font-size="12" id="_17051EC2-3688-491C-A172-8FB3ED241423text_name" x="50" y="40" oryx:align="middle center" oryx:fittoelem="text_frame" stroke="black" stroke-width="0pt" letter-spacing="-0.01px" fill="#000000" text-anchor="middle" transform="rotate(0 50 40)" visibility="inherit" oryx:fontSize="12"><tspan x="50" y="40" dy="5">Agreement</tspan></text>
    <g id="_17051EC2-3688-491C-A172-8FB3ED241423Milestone" transform="scale(0.7,0.7) translate(8,8)">
        <image oryx:anchors="top" x="2" y="2" width="20" height="20" xlink:href="data:image/png;base64,iVBORw0KGgoAAAANSUhEUgAAABAAAAAQCAYAAAAf8/9hAAAArklEQVR42mNQUVH5GyMnt+s+P/+zBwICTx/w8S0HsjMecHEZvWJg4GEgBIAG/NNQUXkO1HQbaMB/JPz1AS/vRiBOusvAwE+OARj4IR/f0ftcXP5PeXlFyDIAGd/j47v/iIfHjjgD+Pl/3efjOwF0QdwVBgaJUAYGZtwu4Of/B8TfgXj/fR6e+v8MDCzYvF7IwMCJYgDQSUcfsbKa7sehAW8gAvFjBnLBqAGjBgABAJ+4l3hcf8LlAAAAAElFTkSuQmCC" id="_17051EC2-3688-491C-A172-8FB3ED241423__17051EC2-3688-491C-A172-8FB3ED241423_19"/>
    </g>
  </g></g><g class="children" style="overflow:hidden"/><g class="edge"/></g><g class="controls"><g class="dockers"/><g class="magnets" transform="translate(465, 540)"><g pointer-events="all" display="none" transform="translate(-7, 12)"><circle cx="8" cy="8" r="4" stroke="none" fill="red" fill-opacity="0.3"/></g><g pointer-events="all" display="none" transform="translate(-7, 32)"><circle cx="8" cy="8" r="4" stroke="none" fill="red" fill-opacity="0.3"/></g><g pointer-events="all" display="none" transform="translate(-7, 52)"><circle cx="8" cy="8" r="4" stroke="none" fill="red" fill-opacity="0.3"/></g><g pointer-events="all" display="none" transform="translate(17, 71)"><circle cx="8" cy="8" r="4" stroke="none" fill="red" fill-opacity="0.3"/></g><g pointer-events="all" display="none" transform="translate(42, 71)"><circle cx="8" cy="8" r="4" stroke="none" fill="red" fill-opacity="0.3"/></g><g pointer-events="all" display="none" transform="translate(67, 71)"><circle cx="8" cy="8" r="4" stroke="none" fill="red" fill-opacity="0.3"/></g><g pointer-events="all" display="none" transform="translate(91, 12)"><circle cx="8" cy="8" r="4" stroke="none" fill="red" fill-opacity="0.3"/></g><g pointer-events="all" display="none" transform="translate(91, 32)"><circle cx="8" cy="8" r="4" stroke="none" fill="red" fill-opacity="0.3"/></g><g pointer-events="all" display="none" transform="translate(91, 52)"><circle cx="8" cy="8" r="4" stroke="none" fill="red" fill-opacity="0.3"/></g><g pointer-events="all" display="none" transform="translate(17, -7)"><circle cx="8" cy="8" r="4" stroke="none" fill="red" fill-opacity="0.3"/></g><g pointer-events="all" display="none" transform="translate(42, -7)"><circle cx="8" cy="8" r="4" stroke="none" fill="red" fill-opacity="0.3"/></g><g pointer-events="all" display="none" transform="translate(67, -7)"><circle cx="8" cy="8" r="4" stroke="none" fill="red" fill-opacity="0.3"/></g><g pointer-events="all" display="none" transform="translate(42, 32)"><circle cx="8" cy="8" r="4" stroke="none" fill="red" fill-opacity="0.3"/></g></g></g></g><g id="_B5B11482-D989-4042-8D74-94FF4C2BF1DE" bpmn2nodeid="_A55B1E7B-D3AA-493B-A6E4-AE722E6EC190"><g class="stencils" transform="translate(250, 566)"><g class="me"><g pointer-events="fill" id="_B5B11482-D989-4042-8D74-94FF4C2BF1DE">        <defs id="_B5B11482-D989-4042-8D74-94FF4C2BF1DE__B5B11482-D989-4042-8D74-94FF4C2BF1DE_6"> 		<radialGradient id="_B5B11482-D989-4042-8D74-94FF4C2BF1DEbackground" cx="10%" cy="10%" r="100%" fx="10%" fy="10%"> 			<stop offset="0%" stop-color="#ffffff" stop-opacity="1" id="_B5B11482-D989-4042-8D74-94FF4C2BF1DE__B5B11482-D989-4042-8D74-94FF4C2BF1DE_7"/> 			<stop id="_B5B11482-D989-4042-8D74-94FF4C2BF1DEfill_el" offset="100%" stop-color="#ff6347" stop-opacity="1"/> 		</radialGradient> 		<radialGradient id="_B5B11482-D989-4042-8D74-94FF4C2BF1DEborderbackground" cx="10%" cy="10%" r="100%" fx="10%" fy="10%"> 			<stop offset="0%" stop-color="#ffffff" stop-opacity="1" id="_B5B11482-D989-4042-8D74-94FF4C2BF1DE__B5B11482-D989-4042-8D74-94FF4C2BF1DE_8"/> 			<stop id="_B5B11482-D989-4042-8D74-94FF4C2BF1DEfill_border" offset="100%" stop-color="#000000" stop-opacity="1" stroke="#000000"/> 		</radialGradient> 	</defs> 	     <circle id="_B5B11482-D989-4042-8D74-94FF4C2BF1DEbg_frame" cx="14" cy="14" r="14" stroke="#000000" fill="url(#_B5B11482-D989-4042-8D74-94FF4C2BF1DEbackground) white" stroke-width="3"/>     <path id="_B5B11482-D989-4042-8D74-94FF4C2BF1DEframe" d=" M6.7124971 19.247342  L21.333334 19.247342  L14.022915000000001 6.575951200000001  L6.7124971 19.247342  z" style="stroke-width:1.4;stroke-miterlimit:4;stroke-dasharray:none" stroke="#000000" fill="url(#_B5B11482-D989-4042-8D74-94FF4C2BF1DEborderbackground)"/> 	<text font-size="11" id="_B5B11482-D989-4042-8D74-94FF4C2BF1DEtext_name" x="14" y="30" oryx:align="top center" stroke="black" stroke-width="0pt" letter-spacing="-0.01px" fill="#000000" text-anchor="middle" transform="rotate(0 14 30)" visibility="inherit" oryx:fontSize="11"/>   </g></g><g class="children" style="overflow:hidden"/><g class="edge"/></g><g class="controls"><g class="dockers"/><g class="magnets" transform="translate(250, 566)"><g pointer-events="all" display="none" transform="translate(6, 6)"><circle cx="8" cy="8" r="4" stroke="none" fill="red" fill-opacity="0.3"/></g></g></g></g><g id="_6D3A4D62-C865-43DC-BD88-9966BAD80CF7" bpmn2nodeid="_597C963B-9A26-44FA-85E2-3CA656D89BDE"><g class="stencils" transform="translate(610, 540)"><g class="me"><g pointer-events="fill" oryx:minimumSize="50 40" id="_6D3A4D62-C865-43DC-BD88-9966BAD80CF7">   	<defs id="_6D3A4D62-C865-43DC-BD88-9966BAD80CF7__6D3A4D62-C865-43DC-BD88-9966BAD80CF7_17"> 		<radialGradient id="_6D3A4D62-C865-43DC-BD88-9966BAD80CF7background" cx="10%" cy="10%" r="100%" fx="10%" fy="10%"> 			<stop offset="0%" stop-color="#ffffff" stop-opacity="1" id="_6D3A4D62-C865-43DC-BD88-9966BAD80CF7__6D3A4D62-C865-43DC-BD88-9966BAD80CF7_18"/> 			<stop id="_6D3A4D62-C865-43DC-BD88-9966BAD80CF7fill_el" offset="100%" stop-color="#fafad2" stop-opacity="1"/> 		</radialGradient> 		<radialGradient id="_6D3A4D62-C865-43DC-BD88-9966BAD80CF7borderbackground" cx="10%" cy="10%" r="100%" fx="10%" fy="10%"> 			<stop offset="0%" stop-color="#ffffff" stop-opacity="1" id="_6D3A4D62-C865-43DC-BD88-9966BAD80CF7__6D3A4D62-C865-43DC-BD88-9966BAD80CF7_19"/> 			<stop id="_6D3A4D62-C865-43DC-BD88-9966BAD80CF7fill_border" offset="100%" stop-color="#000000" stop-opacity="1" stroke="#000000"/> 		</radialGradient> 	</defs> 	 	<rect id="_6D3A4D62-C865-43DC-BD88-9966BAD80CF7text_frame" oryx:anchors="bottom top right left" x="1" y="1" width="94" height="79" rx="10" ry="10" stroke="none" stroke-width="0" fill="none"/> 	<rect id="_6D3A4D62-C865-43DC-BD88-9966BAD80CF7bg_frame" oryx:resize="vertical horizontal" x="0" y="0" width="100" height="80" rx="10" ry="10" stroke="#000000" stroke-width="1" fill="url(#_6D3A4D62-C865-43DC-BD88-9966BAD80CF7background) #ffffcc"/> 		<text font-size="12" id="_6D3A4D62-C865-43DC-BD88-9966BAD80CF7text_name" x="50" y="40" oryx:align="middle center" oryx:fittoelem="text_frame" stroke="black" text-anchor="middle" stroke-width="0pt" letter-spacing="-0.01px" fill="#000000" transform="rotate(0 50 40)" visibility="inherit" oryx:fontSize="12"><tspan x="50" y="40" dy="5">closing</tspan></text>     <g id="_6D3A4D62-C865-43DC-BD88-9966BAD80CF7manualTask" transform="scale(0.7,0.7) translate(8,8)" display="none">     	<path oryx:anchors="top left" id="_6D3A4D62-C865-43DC-BD88-9966BAD80CF7frame" style="opacity:1;fill:none;fill-opacity:1;stroke-width:1" d="M0.5,3.751l4.083-3.25c0,0,11.166,0.083,12.083,0.083s-2.417,2.917-1.5,2.917     s11.667,0,12.584,0c1.166,1.708-0.168,3.167-0.834,3.667s0.875,1.917-1,4.417c-0.75,0.25,0.75,1.875-1.333,3.333     c-1.167,0.583,0.583,1.542-1.25,2.833c-1.167,0-20.833,0.083-20.833,0.083l-2-1.333V3.751z" stroke="#000000"/> 		<path id="_6D3A4D62-C865-43DC-BD88-9966BAD80CF7frame2" oryx:anchors="top left" style="opacity:1;fill:none;stroke-width:2" d="M 13.5 7 L 27 7" stroke="#000000"/> 		<path id="_6D3A4D62-C865-43DC-BD88-9966BAD80CF7frame3" oryx:anchors="top left" style="opacity:1;fill:none;stroke-width:2" d="M 13.5 11 L 26 11" stroke="#000000"/> 		<path id="_6D3A4D62-C865-43DC-BD88-9966BAD80CF7frame4" oryx:anchors="top left" style="opacity:1;fill:none;stroke-width:1.5" d="M 14 14.5 L 25 14.5" stroke="#000000"/> 		<path id="_6D3A4D62-C865-43DC-BD88-9966BAD80CF7frame5" oryx:anchors="top left" style="opacity:1;fill:none;stroke-width:1.5" d="M 8.2 3.1 L 15 3.1" stroke="#000000"/> 	</g> 	 	<g id="_6D3A4D62-C865-43DC-BD88-9966BAD80CF7businessRuleTask" transform="scale(0.7,0.7) translate(8,8)" display="none"> 		<rect id="_6D3A4D62-C865-43DC-BD88-9966BAD80CF7frame6" oryx:anchors="top left" x="0" y="0" width="22" height="4" style="opacity:1;fill:#B3B1B3;fill-opacity:1;" stroke="#000000"/> 		<rect id="_6D3A4D62-C865-43DC-BD88-9966BAD80CF7frame7" oryx:anchors="top left" x="0" y="4" style="opacity:1;fill:none;" width="22" height="12" stroke="#000000"/> 		<path id="_6D3A4D62-C865-43DC-BD88-9966BAD80CF7frame8" oryx:anchors="top left" style="opacity:1;fill:none;" d="M 0 10 L 22 10" stroke="#000000"/> 		<path id="_6D3A4D62-C865-43DC-BD88-9966BAD80CF7frame9" oryx:anchors="top left" style="opacity:1; fill:none;" d="M 7 4 L 7 16" stroke="#000000"/> 	</g> 	 	<g id="_6D3A4D62-C865-43DC-BD88-9966BAD80CF7scriptTask" transform="scale(0.7,0.7) translate(8,8)" display="none"> 		<path oryx:anchors="top left" id="_6D3A4D62-C865-43DC-BD88-9966BAD80CF7frame10" style="opacity:1;fill:none;" stroke="#000000" d="M6.402,0.5h14.5c0,0-5.833,2.833-5.833,5.583s4.417,6,4.417,9.167    s-4.167,5.083-4.167,5.083H0.235c0,0,5-2.667,5-5s-4.583-6.75-4.583-9.25S6.402,0.5,6.402,0.5z"/> 		<path oryx:anchors="top left" id="_6D3A4D62-C865-43DC-BD88-9966BAD80CF7frame11" style="opacity:1;fill:none;stroke-width:1.5" d="M 3.5 4.5 L 13.5 4.5" stroke="#000000"/> 		<path oryx:anchors="top left" id="_6D3A4D62-C865-43DC-BD88-9966BAD80CF7frame12" style="opacity:1;fill:none;stroke-width:1.5" d="M 3.8 8.5 L 13.8 8.5" stroke="#000000"/> 		<path oryx:anchors="top left" id="_6D3A4D62-C865-43DC-BD88-9966BAD80CF7frame13" style="opacity:1;fill:none;stroke-width:1.5" d="M 6.3 12.5 L 16.3 12.5" stroke="#000000"/> 		<path oryx:anchors="top left" id="_6D3A4D62-C865-43DC-BD88-9966BAD80CF7frame14" style="opacity:1;fill:none;stroke-width:1.5" d="M 6.5 16.5 L 16.5 16.5" stroke="#000000"/> 	</g> 	 	<g id="_6D3A4D62-C865-43DC-BD88-9966BAD80CF7userTask" transform="scale(0.7,0.7) translate(8,8)" display="inherit"> 		<path id="_6D3A4D62-C865-43DC-BD88-9966BAD80CF7frame15" oryx:anchors="top left" style="opacity:1;fill:#F4F6F7" stroke="#000000" d="M0.585,24.167h24.083v-7.833c0,0-2.333-3.917-7.083-5.167h-9.25    c-4.417,1.333-7.833,5.75-7.833,5.75L0.585,24.167z"/> 		<path id="_6D3A4D62-C865-43DC-BD88-9966BAD80CF7frame16" oryx:anchors="top left" style="opacity:1;fill:none" d="M 6 20 L 6 24" stroke="#000000"/> 		<path id="_6D3A4D62-C865-43DC-BD88-9966BAD80CF7frame17" oryx:anchors="top left" style="opacity:1;fill:none" d="M 20 20 L 20 24" stroke="#000000"/> 		<circle id="_6D3A4D62-C865-43DC-BD88-9966BAD80CF7frame18" oryx:anchors="top left" fill="black" cx="13.002" cy="5.916" r="5.417" stroke="#000000"/> 		<path id="_6D3A4D62-C865-43DC-BD88-9966BAD80CF7frame19" oryx:anchors="top left" style="opacity:1;fill:#F0EFF0;" stroke="#000000" d="M8.043,7.083c0,0,2.814-2.426,5.376-1.807s4.624-0.693,4.624-0.693    c0.25,1.688,0.042,3.75-1.458,5.584c0,0,1.083,0.75,1.083,1.5s0.125,1.875-1,3s-5.5,1.25-6.75,0S8.668,12.834,8.668,12    s0.583-1.25,1.25-1.917C8.835,9.5,7.419,7.708,8.043,7.083z"/> 	</g> 	 	<g id="_6D3A4D62-C865-43DC-BD88-9966BAD80CF7serviceTask" transform="scale(0.7,0.7) translate(8,8)" display="none"> 		<polygon oryx:anchors="top left" id="_6D3A4D62-C865-43DC-BD88-9966BAD80CF7frame20" style="opacity:1;fill:#ffffff" stroke="#000000" points="15.392,5.064 17.954,2.502 20.347,4.895 17.786,7.455     18.729,9.732 22.353,9.732 22.353,13.115 18.731,13.115 17.788,15.392 20.351,17.955 17.958,20.347 15.397,17.786 13.12,18.729     13.12,22.353 9.737,22.353 9.737,18.731 7.46,17.788 4.897,20.35 2.506,17.958 5.066,15.397 4.124,13.12 0.5,13.12 0.5,9.737     4.121,9.737 5.065,7.461 2.503,4.898 4.895,2.506 7.455,5.066 9.732,4.125 9.732,0.5 13.116,0.5 13.116,4.121 "/> 		<circle oryx:anchors="top left" id="_6D3A4D62-C865-43DC-BD88-9966BAD80CF7frame21" style="opacity:1;fill:none" stroke="#000000" cx="11.427" cy="11.426" r="3.714"/> 		<polygon oryx:anchors="top left" id="_6D3A4D62-C865-43DC-BD88-9966BAD80CF7frame22" style="opacity:1;fill:#ffffff" stroke="#000000" points="21.392,11.064 23.954,8.502 26.347,10.895 23.786,13.455     24.729,15.732 28.353,15.732 28.353,19.115 24.731,19.115 23.788,21.392 26.351,23.955 23.958,26.347 21.397,23.786 19.12,24.729     19.12,28.353 15.737,28.353 15.737,24.731 13.46,23.788 10.897,26.35 8.506,23.958 11.066,21.397 10.124,19.12 6.5,19.12     6.5,15.737 10.121,15.737 11.065,13.461 8.503,10.898 10.895,8.506 13.455,11.066 15.732,10.125 15.732,6.5 19.116,6.5     19.116,10.121 "/> 		<circle oryx:anchors="top left" id="_6D3A4D62-C865-43DC-BD88-9966BAD80CF7frame23" style="opacity:1;fill:none;" stroke="#000000" cx="17.427" cy="17.426" r="3.714"/> 	</g> 	 	<g id="_6D3A4D62-C865-43DC-BD88-9966BAD80CF7sendTask" display="none"> 		<path id="_6D3A4D62-C865-43DC-BD88-9966BAD80CF7stframe24" oryx:anchors="left top" stroke="#FFFFFF" fill="black" stroke-width="1" d="M8,11 L8,21 L24,21 L24,11 L16,17z"/> 		<path id="_6D3A4D62-C865-43DC-BD88-9966BAD80CF7stframe25" oryx:anchors="left top" stroke="#FFFFFF" fill="black" stroke-width="1" d="M7,10 L16,17 L25 10z"/> 	</g> 	 	<g id="_6D3A4D62-C865-43DC-BD88-9966BAD80CF7receiveTask" display="none"> 		<path id="_6D3A4D62-C865-43DC-BD88-9966BAD80CF7frame26" oryx:anchors="left top" stroke="#000000" fill="none" stroke-width="1" d="M8,11 L8,21 L24,21 L24,11z M8,11 L16,17 L24,11"/> 	</g> 	 	<g id="_6D3A4D62-C865-43DC-BD88-9966BAD80CF7none" display="inherit"/>  	<g id="_6D3A4D62-C865-43DC-BD88-9966BAD80CF7sequential" display="none">         <path oryx:anchors="bottom" fill="none" stroke="#000000" stroke-width="2" d="M46,76h10M46,72h10 M46,68h10" id="_6D3A4D62-C865-43DC-BD88-9966BAD80CF7__6D3A4D62-C865-43DC-BD88-9966BAD80CF7_20"/>     </g>   </g></g><g class="children" style="overflow:hidden"/><g class="edge"/></g><g class="controls"><g class="dockers"/><g class="magnets" transform="translate(610, 540)"><g pointer-events="all" display="none" transform="translate(-7, 12)"><circle cx="8" cy="8" r="4" stroke="none" fill="red" fill-opacity="0.3"/></g><g pointer-events="all" display="none" transform="translate(-7, 32)"><circle cx="8" cy="8" r="4" stroke="none" fill="red" fill-opacity="0.3"/></g><g pointer-events="all" display="none" transform="translate(-7, 52)"><circle cx="8" cy="8" r="4" stroke="none" fill="red" fill-opacity="0.3"/></g><g pointer-events="all" display="none" transform="translate(17, 71)"><circle cx="8" cy="8" r="4" stroke="none" fill="red" fill-opacity="0.3"/></g><g pointer-events="all" display="none" transform="translate(42, 71)"><circle cx="8" cy="8" r="4" stroke="none" fill="red" fill-opacity="0.3"/></g><g pointer-events="all" display="none" transform="translate(67, 71)"><circle cx="8" cy="8" r="4" stroke="none" fill="red" fill-opacity="0.3"/></g><g pointer-events="all" display="none" transform="translate(91, 12)"><circle cx="8" cy="8" r="4" stroke="none" fill="red" fill-opacity="0.3"/></g><g pointer-events="all" display="none" transform="translate(91, 32)"><circle cx="8" cy="8" r="4" stroke="none" fill="red" fill-opacity="0.3"/></g><g pointer-events="all" display="none" transform="translate(91, 52)"><circle cx="8" cy="8" r="4" stroke="none" fill="red" fill-opacity="0.3"/></g><g pointer-events="all" display="none" transform="translate(17, -7)"><circle cx="8" cy="8" r="4" stroke="none" fill="red" fill-opacity="0.3"/></g><g pointer-events="all" display="none" transform="translate(42, -7)"><circle cx="8" cy="8" r="4" stroke="none" fill="red" fill-opacity="0.3"/></g><g pointer-events="all" display="none" transform="translate(67, -7)"><circle cx="8" cy="8" r="4" stroke="none" fill="red" fill-opacity="0.3"/></g><g pointer-events="all" display="none" transform="translate(42, 32)"><circle cx="8" cy="8" r="4" stroke="none" fill="red" fill-opacity="0.3"/></g></g></g></g><g id="_3780CF00-947C-4BB2-B3F9-0282DA5F413C" bpmn2nodeid="_4A2B5B5B-94E6-4B14-BA30-8F9456ECE42B"><g class="stencils" transform="translate(755, 566)"><g class="me"><g pointer-events="fill" id="_3780CF00-947C-4BB2-B3F9-0282DA5F413C">       <defs id="_3780CF00-947C-4BB2-B3F9-0282DA5F413C__3780CF00-947C-4BB2-B3F9-0282DA5F413C_5"> 		<radialGradient id="_3780CF00-947C-4BB2-B3F9-0282DA5F413Cbackground" cx="10%" cy="10%" r="100%" fx="10%" fy="10%"> 			<stop offset="0%" stop-color="#ffffff" stop-opacity="1" id="_3780CF00-947C-4BB2-B3F9-0282DA5F413C__3780CF00-947C-4BB2-B3F9-0282DA5F413C_6"/> 			<stop id="_3780CF00-947C-4BB2-B3F9-0282DA5F413Cfill_el" offset="100%" stop-color="#ff6347" stop-opacity="1"/> 		</radialGradient> 		<radialGradient id="_3780CF00-947C-4BB2-B3F9-0282DA5F413Cborderbackground" cx="10%" cy="10%" r="100%" fx="10%" fy="10%"> 			<stop offset="0%" stop-color="#ffffff" stop-opacity="1" id="_3780CF00-947C-4BB2-B3F9-0282DA5F413C__3780CF00-947C-4BB2-B3F9-0282DA5F413C_7"/> 			<stop id="_3780CF00-947C-4BB2-B3F9-0282DA5F413Cfill_border" offset="100%" stop-color="#000000" stop-opacity="1" stroke="#000000"/> 		</radialGradient> 	</defs> 	     <circle id="_3780CF00-947C-4BB2-B3F9-0282DA5F413Cbg_frame" cx="14" cy="14" r="14" stroke="#000000" fill="url(#_3780CF00-947C-4BB2-B3F9-0282DA5F413Cbackground) white" stroke-width="3"/>          <circle id="_3780CF00-947C-4BB2-B3F9-0282DA5F413Cframe" cx="14" cy="14" r="9" stroke="#000000" fill="url(#_3780CF00-947C-4BB2-B3F9-0282DA5F413Cborderbackground)" stroke-width="1"/> 	<text font-size="11" id="_3780CF00-947C-4BB2-B3F9-0282DA5F413Ctext_name" x="14" y="30" oryx:align="top center" stroke="black" stroke-width="0pt" letter-spacing="-0.01px" fill="#000000" text-anchor="middle" transform="rotate(0 14 30)" visibility="inherit" oryx:fontSize="11"/>   </g></g><g class="children" style="overflow:hidden"/><g class="edge"/></g><g class="controls"><g class="dockers"/><g class="magnets" transform="translate(755, 566)"><g pointer-events="all" display="none" transform="translate(6, 6)"><circle cx="8" cy="8" r="4" stroke="none" fill="red" fill-opacity="0.3"/></g></g></g></g><g id="_ECD8C4CB-5562-4EDF-AD30-A6E8A9445553" bpmn2nodeid="_6AEBB227-EE18-4967-9856-074C6E3BF56F"><g class="stencils" transform="translate(20.999992664043447, 131.5)"><g class="me"><g pointer-events="fill" id="_ECD8C4CB-5562-4EDF-AD30-A6E8A9445553">        <defs id="_ECD8C4CB-5562-4EDF-AD30-A6E8A9445553__ECD8C4CB-5562-4EDF-AD30-A6E8A9445553_5"> 		<radialGradient id="_ECD8C4CB-5562-4EDF-AD30-A6E8A9445553background" cx="10%" cy="10%" r="100%" fx="10%" fy="10%"> 			<stop offset="0%" stop-color="#ffffff" stop-opacity="1" id="_ECD8C4CB-5562-4EDF-AD30-A6E8A9445553__ECD8C4CB-5562-4EDF-AD30-A6E8A9445553_6"/> 			<stop id="_ECD8C4CB-5562-4EDF-AD30-A6E8A9445553fill_el" offset="100%" stop-color="#9acd32" stop-opacity="1"/> 		</radialGradient> 	</defs> 	     <circle id="_ECD8C4CB-5562-4EDF-AD30-A6E8A9445553bg_frame" cx="15" cy="15" r="15" stroke="#000000" fill="url(#_ECD8C4CB-5562-4EDF-AD30-A6E8A9445553background) white" stroke-width="1" style="stroke-dasharray: 5.5, 3"/>      <circle id="_ECD8C4CB-5562-4EDF-AD30-A6E8A9445553frame" cx="15" cy="15" r="15" stroke="#000000" fill="none" stroke-width="1" display="inherit"/>  	<text font-size="11" id="_ECD8C4CB-5562-4EDF-AD30-A6E8A9445553text_name" x="15" y="32" oryx:align="top center" stroke="black" stroke-width="0pt" letter-spacing="-0.01px" fill="#000000" text-anchor="middle" transform="rotate(0 15 32)" visibility="inherit" oryx:fontSize="11"/>   </g></g><g class="children" style="overflow:hidden"/><g class="edge"/></g><g class="controls"><g class="dockers"/><g class="magnets" transform="translate(20.999992664043447, 131.5)"><g pointer-events="all" display="none" transform="translate(7, 7)"><circle cx="8" cy="8" r="4" stroke="none" fill="red" fill-opacity="0.3"/></g></g></g></g></g><g class="edge"><g id="_186B0D69-9AA1-44CB-9BD7-F345192EC8D9" bpmn2nodeid="_277766F0-25A4-4667-A0D3-1A8C95A8E1CE"><g class="stencils"><g class="me"><g pointer-events="painted" bpmn2nodeid="_E372C72B-86B4-4054-8FD1-A703C376E33C"><path id="_186B0D69-9AA1-44CB-9BD7-F345192EC8D9_1" d="M205.390625 580L249.375 580 " stroke="#000000" fill="none" stroke-width="2" stroke-linecap="round" stroke-linejoin="round" marker-start="url(#_186B0D69-9AA1-44CB-9BD7-F345192EC8D9start)" marker-end="url(#_186B0D69-9AA1-44CB-9BD7-F345192EC8D9end)"/></g><text id="_186B0D69-9AA1-44CB-9BD7-F345192EC8D9text_name" font-size="12" x="219.390625" y="566" oryx:edgePosition="startTop" stroke-width="0pt" letter-spacing="-0.01px" fill="#000000" text-anchor="start" transform="rotate(360 205.390625 580)" visibility="inherit" oryx:fontSize="12"/></g><g class="children" style="overflow:hidden"/><g class="edge"/></g><g class="controls"><g class="dockers"/><g class="magnets"/></g></g><g id="_670860B4-0D39-4CAF-AFBF-DB3C13FE7AF6" bpmn2nodeid="_4A6FF685-D39A-4F9B-A8CA-5C57D09F2C77"><g class="stencils"><g class="me"><g pointer-events="painted" bpmn2nodeid="_A5DC5603-8311-4F02-8723-9E2585FBA519"><path id="_670860B4-0D39-4CAF-AFBF-DB3C13FE7AF6_1" d="M565.84375 580L609.15625 580 " stroke="#000000" fill="none" stroke-width="2" stroke-linecap="round" stroke-linejoin="round" marker-start="url(#_670860B4-0D39-4CAF-AFBF-DB3C13FE7AF6start)" marker-end="url(#_670860B4-0D39-4CAF-AFBF-DB3C13FE7AF6end)"/></g><text id="_670860B4-0D39-4CAF-AFBF-DB3C13FE7AF6text_name" font-size="12" x="579.84375" y="566" oryx:edgePosition="startTop" stroke-width="0pt" letter-spacing="-0.01px" fill="#000000" text-anchor="start" transform="rotate(360 565.84375 580)" visibility="inherit" oryx:fontSize="12"/></g><g class="children" style="overflow:hidden"/><g class="edge"/></g><g class="controls"><g class="dockers"/><g class="magnets"/></g></g><g id="_EFD95414-F332-4F5B-A1DB-14BFF28384F5" bpmn2nodeid="_A28E3DD4-0FB7-4C6E-AD7E-5B7B4469C526"><g class="stencils"><g class="me"><g pointer-events="painted" bpmn2nodeid="_737E7FF3-12C6-43F2-B7B0-8794327CF148"><path id="_EFD95414-F332-4F5B-A1DB-14BFF28384F5_1" d="M710.390625 580L754.375 580 " stroke="#000000" fill="none" stroke-width="2" stroke-linecap="round" stroke-linejoin="round" marker-start="url(#_EFD95414-F332-4F5B-A1DB-14BFF28384F5start)" marker-end="url(#_EFD95414-F332-4F5B-A1DB-14BFF28384F5end)"/></g><text id="_EFD95414-F332-4F5B-A1DB-14BFF28384F5text_name" font-size="12" x="724.390625" y="566" oryx:edgePosition="startTop" stroke-width="0pt" letter-spacing="-0.01px" fill="#000000" text-anchor="start" transform="rotate(360 710.390625 580)" visibility="inherit" oryx:fontSize="12"/></g><g class="children" style="overflow:hidden"/><g class="edge"/></g><g class="controls"><g class="dockers"/><g class="magnets"/></g></g><g id="_9867F925-0A6B-4032-851A-11C21FA93817" bpmn2nodeid="_A87342FD-01F8-4BD3-9797-30DC94B0E4BC"><g class="stencils"><g class="me"><g pointer-events="painted" bpmn2nodeid="_337B7F51-608D-430D-9787-0D2270739ED0"><path id="_9867F925-0A6B-4032-851A-11C21FA93817_1" d="M738.6914056605455 146.15125797430994L878 146 L878 364 L738.6914056605455 364.15125797430994 " stroke="#000000" fill="none" stroke-width="2" stroke-linecap="round" stroke-linejoin="round" marker-start="url(#_9867F925-0A6B-4032-851A-11C21FA93817start)" marker-end="url(#_9867F925-0A6B-4032-851A-11C21FA93817end)"/></g><text id="_9867F925-0A6B-4032-851A-11C21FA93817text_name" font-size="12" x="752.6914056605455" y="132.15125797430994" oryx:edgePosition="startTop" stroke-width="0pt" letter-spacing="-0.01px" fill="#000000" text-anchor="start" transform="rotate(359.93778962323825 738.6914056605455 146.15125797430994)" visibility="inherit" oryx:fontSize="12"/></g><g class="children" style="overflow:hidden"/><g class="edge"/></g><g class="controls"><g class="dockers"/><g class="magnets"/></g></g><g id="_443AD9A9-34D4-4421-9AD1-B56CF89C9EC1" bpmn2nodeid="_5BBF9976-2998-4BC4-A7B4-4D5CD37E51D2"><g class="stencils"><g class="me"><g pointer-events="painted" bpmn2nodeid="_5BBF9976-2998-4BC4-A7B4-4D5CD37E51D2"><path id="_443AD9A9-34D4-4421-9AD1-B56CF89C9EC1_1" d="M51.90233670060425 146.5L96.09960321394274 146.5 " stroke="#000000" fill="none" stroke-width="2" stroke-linecap="round" stroke-linejoin="round" marker-start="url(#_443AD9A9-34D4-4421-9AD1-B56CF89C9EC1start)" marker-end="url(#_443AD9A9-34D4-4421-9AD1-B56CF89C9EC1end)"/></g><text id="_443AD9A9-34D4-4421-9AD1-B56CF89C9EC1text_name" font-size="12" x="65.90233670060425" y="132.5" oryx:edgePosition="startTop" stroke-width="0pt" letter-spacing="-0.01px" fill="#000000" text-anchor="start" transform="rotate(360 51.90233670060425 146.5)" visibility="inherit" oryx:fontSize="12"/></g><g class="children" style="overflow:hidden"/><g class="edge"/></g><g class="controls"><g class="dockers"/><g class="magnets"/></g></g></g><text id="_FD4BE84D-2E17-4E31-8E55-A1F7389662A6" style="stroke-width:1;fill:rgb(177,194,214);font-family:arial;font-weight:bold" font-size="12" onclick="ORYX.Plugins.CanvasTitle.openTextualAnalysis()" onmouseover="ORYX.Plugins.CanvasTitle.addToolTip('_FD4BE84D-2E17-4E31-8E55-A1F7389662A6')" transform="translate(10, 20)">incident-case v.1.0 (com.demo.incident-case)</text></g></g></svg>